testbench/test.vcd
$date
	Sat Sep 21 14:42:42 2024
$end
$version
	Icarus Verilog
$end
$timescale
	1ns
$end
$scope module Permutation_ti $end
$var wire 320 ! S_0 [319:0] $end
$var wire 320 " S_1 [319:0] $end
$var wire 320 # S_2 [319:0] $end
$var wire 1 $ clk $end
$var wire 5 % ctr [4:0] $end
$var wire 1 & done $end
$var wire 64 ' ll0 [63:0] $end
$var wire 64 ( ll1 [63:0] $end
$var wire 64 ) ll2 [63:0] $end
$var wire 64 * ll3 [63:0] $end
$var wire 64 + ll4 [63:0] $end
$var wire 64 , r0 [63:0] $end
$var wire 64 - r1 [63:0] $end
$var wire 64 . r2 [63:0] $end
$var wire 64 / r3 [63:0] $end
$var wire 64 0 r4 [63:0] $end
$var wire 64 1 r5 [63:0] $end
$var wire 64 2 r6 [63:0] $end
$var wire 64 3 rc_out [63:0] $end
$var wire 1 4 reset $end
$var wire 5 5 rounds [4:0] $end
$var wire 1 6 start $end
$var wire 64 7 x0 [63:0] $end
$var wire 64 8 x1 [63:0] $end
$var wire 64 9 x2 [63:0] $end
$var wire 64 : x3 [63:0] $end
$var wire 64 ; x4 [63:0] $end
$var wire 64 < y0 [63:0] $end
$var wire 64 = y1 [63:0] $end
$var wire 64 > y2 [63:0] $end
$var wire 64 ? y3 [63:0] $end
$var wire 64 @ y4 [63:0] $end
$var wire 64 A y4_2 [63:0] $end
$var wire 64 B y4_1 [63:0] $end
$var wire 64 C y4_0 [63:0] $end
$var wire 64 D y3_2 [63:0] $end
$var wire 64 E y3_1 [63:0] $end
$var wire 64 F y3_0 [63:0] $end
$var wire 64 G y2_2 [63:0] $end
$var wire 64 H y2_1 [63:0] $end
$var wire 64 I y2_0 [63:0] $end
$var wire 64 J y1_2 [63:0] $end
$var wire 64 K y1_1 [63:0] $end
$var wire 64 L y1_0 [63:0] $end
$var wire 64 M y0_2 [63:0] $end
$var wire 64 N y0_1 [63:0] $end
$var wire 64 O y0_0 [63:0] $end
$var wire 64 P x4_2_d [63:0] $end
$var wire 64 Q x4_1_d [63:0] $end
$var wire 64 R x4_0_d [63:0] $end
$var wire 64 S x3_2_d [63:0] $end
$var wire 64 T x3_1_d [63:0] $end
$var wire 64 U x3_0_d [63:0] $end
$var wire 64 V x2_2_d [63:0] $end
$var wire 64 W x2_1_d [63:0] $end
$var wire 64 X x2_0_d [63:0] $end
$var wire 64 Y x1_2_d [63:0] $end
$var wire 64 Z x1_1_d [63:0] $end
$var wire 64 [ x1_0_d [63:0] $end
$var wire 64 \ x0_2_d [63:0] $end
$var wire 64 ] x0_1_d [63:0] $end
$var wire 64 ^ x0_0_d [63:0] $end
$var wire 64 _ rc_out_2 [63:0] $end
$var wire 64 ` rc_out_1 [63:0] $end
$var wire 64 a rc_out_0 [63:0] $end
$var wire 320 b out_2 [319:0] $end
$var wire 320 c out_1 [319:0] $end
$var wire 320 d out_0 [319:0] $end
$var reg 1 e Done $end
$var reg 64 f x0_0_q [63:0] $end
$var reg 64 g x0_1_q [63:0] $end
$var reg 64 h x0_2_q [63:0] $end
$var reg 64 i x1_0_q [63:0] $end
$var reg 64 j x1_1_q [63:0] $end
$var reg 64 k x1_2_q [63:0] $end
$var reg 64 l x2_0_q [63:0] $end
$var reg 64 m x2_1_q [63:0] $end
$var reg 64 n x2_2_q [63:0] $end
$var reg 64 o x3_0_q [63:0] $end
$var reg 64 p x3_1_q [63:0] $end
$var reg 64 q x3_2_q [63:0] $end
$var reg 64 r x4_0_q [63:0] $end
$var reg 64 s x4_1_q [63:0] $end
$var reg 64 t x4_2_q [63:0] $end
$scope module l0 $end
$var wire 64 u r0 [63:0] $end
$var wire 64 v r1 [63:0] $end
$var wire 64 w r2 [63:0] $end
$var wire 64 x r3 [63:0] $end
$var wire 64 y r4 [63:0] $end
$var wire 64 z x4 [63:0] $end
$var wire 64 { x3 [63:0] $end
$var wire 64 | x2 [63:0] $end
$var wire 64 } x1 [63:0] $end
$var wire 64 ~ x0 [63:0] $end
$var wire 320 !" s [319:0] $end
$var wire 320 "" r [319:0] $end
$var wire 64 #" Y4 [63:0] $end
$var wire 64 $" Y3 [63:0] $end
$var wire 64 %" Y2 [63:0] $end
$var wire 64 &" Y1 [63:0] $end
$var wire 64 '" Y0 [63:0] $end
$upscope $end
$scope module l1 $end
$var wire 64 (" r0 [63:0] $end
$var wire 64 )" r1 [63:0] $end
$var wire 64 *" r2 [63:0] $end
$var wire 64 +" r3 [63:0] $end
$var wire 64 ," r4 [63:0] $end
$var wire 64 -" x4 [63:0] $end
$var wire 64 ." x3 [63:0] $end
$var wire 64 /" x2 [63:0] $end
$var wire 64 0" x1 [63:0] $end
$var wire 64 1" x0 [63:0] $end
$var wire 320 2" s [319:0] $end
$var wire 320 3" r [319:0] $end
$var wire 64 4" Y4 [63:0] $end
$var wire 64 5" Y3 [63:0] $end
$var wire 64 6" Y2 [63:0] $end
$var wire 64 7" Y1 [63:0] $end
$var wire 64 8" Y0 [63:0] $end
$upscope $end
$scope module l2 $end
$var wire 64 9" r0 [63:0] $end
$var wire 64 :" r1 [63:0] $end
$var wire 64 ;" r2 [63:0] $end
$var wire 64 <" r3 [63:0] $end
$var wire 64 =" r4 [63:0] $end
$var wire 64 >" x4 [63:0] $end
$var wire 64 ?" x3 [63:0] $end
$var wire 64 @" x2 [63:0] $end
$var wire 64 A" x1 [63:0] $end
$var wire 64 B" x0 [63:0] $end
$var wire 320 C" s [319:0] $end
$var wire 320 D" r [319:0] $end
$var wire 64 E" Y4 [63:0] $end
$var wire 64 F" Y3 [63:0] $end
$var wire 64 G" Y2 [63:0] $end
$var wire 64 H" Y1 [63:0] $end
$var wire 64 I" Y0 [63:0] $end
$upscope $end
$scope module rc0 $end
$var wire 64 J" r0 [63:0] $end
$var wire 5 K" rounds [4:0] $end
$var wire 64 L" x2 [63:0] $end
$var wire 64 M" out [63:0] $end
$var reg 64 N" out_buf [63:0] $end
$upscope $end
$scope module rc1 $end
$var wire 64 O" r1 [63:0] $end
$var wire 5 P" rounds [4:0] $end
$var wire 64 Q" x2 [63:0] $end
$var wire 64 R" out [63:0] $end
$var reg 64 S" out_buf [63:0] $end
$upscope $end
$scope module rc2 $end
$var wire 5 T" ctr [4:0] $end
$var wire 64 U" r0 [63:0] $end
$var wire 64 V" r1 [63:0] $end
$var wire 5 W" rounds [4:0] $end
$var wire 64 X" x2 [63:0] $end
$var wire 64 Y" out [63:0] $end
$var reg 64 Z" out_buf [63:0] $end
$upscope $end
$scope module s0 $end
$var wire 64 [" x0_0 [63:0] $end
$var wire 64 \" x0_1 [63:0] $end
$var wire 64 ]" x0_2 [63:0] $end
$var wire 64 ^" x1_0 [63:0] $end
$var wire 64 _" x1_1 [63:0] $end
$var wire 64 `" x1_2 [63:0] $end
$var wire 64 a" x2_0 [63:0] $end
$var wire 64 b" x2_1 [63:0] $end
$var wire 64 c" x2_2 [63:0] $end
$var wire 64 d" x3_0 [63:0] $end
$var wire 64 e" x3_1 [63:0] $end
$var wire 64 f" x3_2 [63:0] $end
$var wire 64 g" x4_0 [63:0] $end
$var wire 64 h" x4_1 [63:0] $end
$var wire 64 i" x4_2 [63:0] $end
$var wire 64 j" y0_0 [63:0] $end
$var wire 64 k" y1_0 [63:0] $end
$var wire 64 l" y2_0 [63:0] $end
$var wire 64 m" y3_0 [63:0] $end
$var wire 64 n" y4_0 [63:0] $end
$upscope $end
$scope module s1 $end
$var wire 64 o" x0_0 [63:0] $end
$var wire 64 p" x0_1 [63:0] $end
$var wire 64 q" x0_2 [63:0] $end
$var wire 64 r" x1_0 [63:0] $end
$var wire 64 s" x1_1 [63:0] $end
$var wire 64 t" x1_2 [63:0] $end
$var wire 64 u" x2_0 [63:0] $end
$var wire 64 v" x2_1 [63:0] $end
$var wire 64 w" x2_2 [63:0] $end
$var wire 64 x" x3_0 [63:0] $end
$var wire 64 y" x3_1 [63:0] $end
$var wire 64 z" x3_2 [63:0] $end
$var wire 64 {" x4_0 [63:0] $end
$var wire 64 |" x4_1 [63:0] $end
$var wire 64 }" x4_2 [63:0] $end
$var wire 64 ~" y0_1 [63:0] $end
$var wire 64 !# y1_1 [63:0] $end
$var wire 64 "# y2_1 [63:0] $end
$var wire 64 ## y3_1 [63:0] $end
$var wire 64 $# y4_1 [63:0] $end
$upscope $end
$scope module s2 $end
$var wire 64 %# x0_0 [63:0] $end
$var wire 64 &# x0_1 [63:0] $end
$var wire 64 '# x0_2 [63:0] $end
$var wire 64 (# x1_0 [63:0] $end
$var wire 64 )# x1_1 [63:0] $end
$var wire 64 *# x1_2 [63:0] $end
$var wire 64 +# x2_0 [63:0] $end
$var wire 64 ,# x2_1 [63:0] $end
$var wire 64 -# x2_2 [63:0] $end
$var wire 64 .# x3_0 [63:0] $end
$var wire 64 /# x3_1 [63:0] $end
$var wire 64 0# x3_2 [63:0] $end
$var wire 64 1# x4_0 [63:0] $end
$var wire 64 2# x4_1 [63:0] $end
$var wire 64 3# x4_2 [63:0] $end
$var wire 64 4# y0_2 [63:0] $end
$var wire 64 5# y1_2 [63:0] $end
$var wire 64 6# y2_2 [63:0] $end
$var wire 64 7# y3_2 [63:0] $end
$var wire 64 8# y4_2 [63:0] $end
$upscope $end
$upscope $end
$scope module tb_encryption $end
$var wire 1 9# tagxSO $end
$var wire 1 :# encryption_readyxSO $end
$var wire 1 ;# cipher_textxSO $end
$var parameter 32 <# PERIOD $end
$var parameter 32 =# max $end
$var reg 3 ># associated_dataxSI [2:0] $end
$var reg 104 ?# cipher_text [103:0] $end
$var reg 1 @# clk $end
$var reg 1 A# encryption_startxSI $end
$var reg 3 B# keyxSI [2:0] $end
$var reg 3 C# noncexSI [2:0] $end
$var reg 3 D# plain_textxSI [2:0] $end
$var reg 1 E# r_128xSI $end
$var reg 7 F# r_64xSI [6:0] $end
$var reg 1 G# r_ptxSI $end
$var reg 1 H# rst $end
$var reg 128 I# tag [127:0] $end
$var integer 32 J# check_time [31:0] $end
$var integer 32 K# ctr [31:0] $end
$scope module uut $end
$var wire 3 L# associated_dataxSI [2:0] $end
$var wire 1 @# clk $end
$var wire 1 :# encryption_readyxSO $end
$var wire 1 M# encryption_start $end
$var wire 1 A# encryption_startxSI $end
$var wire 3 N# keyxSI [2:0] $end
$var wire 3 O# noncexSI [2:0] $end
$var wire 3 P# plain_textxSI [2:0] $end
$var wire 1 H# rst $end
$var wire 128 Q# tag [127:0] $end
$var wire 1 R# ready $end
$var wire 1 S# encryption_ready $end
$var wire 104 T# cipher_text [103:0] $end
$var parameter 32 U# a $end
$var parameter 32 V# b $end
$var parameter 32 W# k $end
$var parameter 32 X# l $end
$var parameter 32 Y# r $end
$var parameter 32 Z# y $end
$var reg 40 [# associated_data [39:0] $end
$var reg 1 ;# cipher_textxSO $end
$var reg 32 \# i [31:0] $end
$var reg 32 ]# j [31:0] $end
$var reg 128 ^# key [127:0] $end
$var reg 128 _# nonce [127:0] $end
$var reg 104 `# plain_text [103:0] $end
$var reg 1 9# tagxSO $end
$scope module d1 $end
$var wire 62 a# IV [61:0] $end
$var wire 40 b# associated_data [39:0] $end
$var wire 1 @# clk $end
$var wire 1 S# encryption_ready $end
$var wire 1 M# encryption_start $end
$var wire 128 c# key [127:0] $end
$var wire 128 d# nonce [127:0] $end
$var wire 104 e# plain_text [103:0] $end
$var wire 1 H# rst $end
$var wire 128 f# tag [127:0] $end
$var wire 1 g# state_1 $end
$var wire 1 h# permutation_ready $end
$var wire 5 i# ctr [4:0] $end
$var wire 104 j# cipher_text [103:0] $end
$var wire 64 k# Sr [63:0] $end
$var wire 256 l# Sc [255:0] $end
$var wire 320 m# P_out [319:0] $end
$var wire 128 n# P [127:0] $end
$var wire 64 o# A [63:0] $end
$var parameter 32 p# ASSOCIATED_DATA $end
$var parameter 32 q# DONE $end
$var parameter 32 r# FINALIZE $end
$var parameter 32 s# IDLE $end
$var parameter 32 t# INITIALIZE $end
$var parameter 35 u# L $end
$var parameter 32 v# PTCT $end
$var parameter 35 w# Y $end
$var parameter 32 x# a $end
$var parameter 32 y# b $end
$var parameter 33 z# c $end
$var parameter 32 {# k $end
$var parameter 32 |# l $end
$var parameter 34 }# nz_ad $end
$var parameter 34 ~# nz_p $end
$var parameter 32 !$ r $end
$var parameter 35 "$ s $end
$var parameter 35 #$ t $end
$var parameter 32 $$ y $end
$var reg 128 %$ C [127:0] $end
$var reg 128 &$ C_d [127:0] $end
$var reg 320 '$ P_in [319:0] $end
$var reg 320 ($ S [319:0] $end
$var reg 128 )$ Tag [127:0] $end
$var reg 128 *$ Tag_d [127:0] $end
$var reg 3 +$ block_ctr [2:0] $end
$var reg 1 ,$ encryption_ready_1 $end
$var reg 1 -$ permutation_start $end
$var reg 5 .$ rounds [4:0] $end
$var reg 3 /$ state [2:0] $end
$scope begin genblk1 $end
$upscope $end
$scope module RC $end
$var wire 1 @# clk $end
$var wire 5 0$ counter [4:0] $end
$var wire 1 -$ permutation_start $end
$var wire 1 H# rst $end
$var wire 1 h# permutation_ready $end
$var reg 5 1$ ctr [4:0] $end
$upscope $end
$scope module p1 $end
$var wire 320 2$ S [319:0] $end
$var wire 1 @# clk $end
$var wire 5 3$ ctr [4:0] $end
$var wire 1 h# done $end
$var wire 1 H# reset $end
$var wire 5 4$ rounds [4:0] $end
$var wire 1 -$ start $end
$var wire 64 5$ x4_d [63:0] $end
$var wire 64 6$ x3_d [63:0] $end
$var wire 64 7$ x2_d [63:0] $end
$var wire 64 8$ x1_d [63:0] $end
$var wire 64 9$ x0_d [63:0] $end
$var wire 64 :$ sl4 [63:0] $end
$var wire 64 ;$ sl3 [63:0] $end
$var wire 64 <$ sl2 [63:0] $end
$var wire 64 =$ sl1 [63:0] $end
$var wire 64 >$ sl0 [63:0] $end
$var wire 64 ?$ rc_out [63:0] $end
$var wire 320 @$ out [319:0] $end
$var reg 1 A$ Done $end
$var reg 64 B$ x0_q [63:0] $end
$var reg 64 C$ x1_q [63:0] $end
$var reg 64 D$ x2_q [63:0] $end
$var reg 64 E$ x3_q [63:0] $end
$var reg 64 F$ x4_q [63:0] $end
$scope module u0 $end
$var wire 5 G$ ctr [4:0] $end
$var wire 5 H$ rounds [4:0] $end
$var wire 64 I$ x2 [63:0] $end
$var wire 64 J$ out [63:0] $end
$var reg 64 K$ out_buf [63:0] $end
$upscope $end
$scope module u1 $end
$var wire 64 L$ x0 [63:0] $end
$var wire 64 M$ x1 [63:0] $end
$var wire 64 N$ x2 [63:0] $end
$var wire 64 O$ x3 [63:0] $end
$var wire 64 P$ x4 [63:0] $end
$var wire 64 Q$ sl4 [63:0] $end
$var wire 64 R$ sl3 [63:0] $end
$var wire 64 S$ sl2 [63:0] $end
$var wire 64 T$ sl1 [63:0] $end
$var wire 64 U$ sl0 [63:0] $end
$var parameter 32 V$ TYPE $end
$scope begin genblk1 $end
$upscope $end
$upscope $end
$scope module u2 $end
$var wire 64 W$ X0 [63:0] $end
$var wire 64 X$ X1 [63:0] $end
$var wire 64 Y$ X2 [63:0] $end
$var wire 64 Z$ X3 [63:0] $end
$var wire 64 [$ X4 [63:0] $end
$var wire 320 \$ s [319:0] $end
$var wire 64 ]$ Y4 [63:0] $end
$var wire 64 ^$ Y3 [63:0] $end
$var wire 64 _$ Y2 [63:0] $end
$var wire 64 `$ Y1 [63:0] $end
$var wire 64 a$ Y0 [63:0] $end
$upscope $end
$upscope $end
$upscope $end
$upscope $end
$scope task read $end
$var integer 32 b$ i [31:0] $end
$upscope $end
$scope task write $end
$var reg 128 c$ ass_data [127:0] $end
$var reg 128 d$ i [127:0] $end
$var reg 128 e$ key [127:0] $end
$var reg 128 f$ nonce [127:0] $end
$var reg 128 g$ pt [127:0] $end
$var reg 128 h$ rd [127:0] $end
$upscope $end
$upscope $end
$enddefinitions $end
$comment Show the parameter values. $end
$dumpall
b1 V$
b1101000 $$
b10 #$
b1 "$
b1000000 !$
b10111 ~#
b10111 }#
b101000 |#
b10000000 {#
b100000000 z#
b110 y#
b1100 x#
b10000000 w#
b11 v#
b1000000 u#
b1 t#
b0 s#
b100 r#
b101 q#
b10 p#
b1101000 Z#
b1000000 Y#
b101000 X#
b10000000 W#
b110 V#
b1100 U#
b10000000 =#
b10100 <#
$end
#0
$dumpvars
bx h$
bx g$
bx f$
bx e$
bx d$
bx c$
bx b$
bx a$
bx `$
bx _$
bx ^$
bx ]$
bx \$
bx [$
bx Z$
bx Y$
bx X$
bx W$
bx U$
bx T$
bx S$
bx R$
bx Q$
bx P$
bx O$
bx N$
bx M$
bx L$
bx K$
bx J$
bx I$
b0 H$
bx G$
bx F$
bx E$
bx D$
bx C$
bx B$
xA$
bx @$
bx ?$
bx >$
bx =$
bx <$
bx ;$
bx :$
bx 9$
bx 8$
bx 7$
bx 6$
bx 5$
b0 4$
bx 3$
bx 2$
bx 1$
bx 0$
bx /$
b0 .$
0-$
0,$
bx +$
b0 *$
bx )$
bx ($
bx '$
b0 &$
bx %$
bx100000000000000000000000 o#
bx100000000000000000000000 n#
bx m#
bx l#
bx k#
b0 j#
bx i#
xh#
xg#
b0 f#
bx e#
bx d#
bx c#
bx b#
b10000000010000000000110000000110 a#
bx `#
bx _#
bx ^#
bx ]#
bx \#
bx [#
b0 T#
0S#
xR#
b0 Q#
bx P#
bx O#
bx N#
xM#
bx L#
b0 K#
bx J#
bx I#
1H#
xG#
bx F#
xE#
bx D#
bx C#
bx B#
xA#
0@#
bx ?#
bx >#
x;#
0:#
x9#
bx 8#
bx 7#
bx 6#
bx 5#
bx 4#
bx 3#
bx 2#
bx 1#
bx 0#
bx /#
bx .#
bx -#
bx ,#
bx +#
bx *#
bx )#
bx (#
bx '#
bx &#
bx %#
bx $#
bx ##
bx "#
bx !#
bx ~"
bx }"
bx |"
bx {"
bx z"
bx y"
bx x"
bx w"
bx v"
bx u"
bx t"
bx s"
bx r"
bx q"
bx p"
bx o"
bx n"
bx m"
bx l"
bx k"
bx j"
bx i"
bx h"
bx g"
bx f"
bx e"
bx d"
bx c"
bx b"
bx a"
bx `"
bx _"
bx ^"
bx ]"
bx \"
bx ["
bx Z"
bx Y"
bx X"
bz W"
bz V"
bz U"
bz T"
bx S"
bx R"
bx Q"
bz P"
bz O"
bx N"
bx M"
bx L"
bz K"
bz J"
bx I"
bx H"
bx G"
bx F"
bx E"
bz D"
bx C"
bx B"
bx A"
bx @"
bx ?"
bx >"
bz ="
bz <"
bz ;"
bz :"
bz 9"
bx 8"
bx 7"
bx 6"
bx 5"
bx 4"
bz 3"
bx 2"
bx 1"
bx 0"
bx /"
bx ."
bx -"
bz ,"
bz +"
bz *"
bz )"
bz ("
bx '"
bx &"
bx %"
bx $"
bx #"
bz ""
bx !"
bx ~
bx }
bx |
bx {
bx z
bz y
bz x
bz w
bz v
bz u
bx t
bx s
bx r
bx q
bx p
bx o
bx n
bx m
bx l
bx k
bx j
bx i
bx h
bx g
bx f
xe
bx d
bx c
bx b
bx a
bx `
bx _
bx ^
bx ]
bx \
bx [
bx Z
bx Y
bx X
bx W
bx V
bx U
bx T
bx S
bx R
bx Q
bx P
bx O
bx N
bx M
bx L
bx K
bx J
bx I
bx H
bx G
bx F
bx E
bx D
bx C
bx B
bx A
bx @
bx ?
bx >
bx =
bx <
bx ;
bx :
bx 9
bx 8
bx 7
z6
bz 5
z4
bx 3
bz 2
bz 1
bz 0
bz /
bz .
bz -
bz ,
bx +
bx *
bx )
bx (
bx '
x&
bz %
z$
bz #
bz "
bz !
$end
#20
b111111110000000000000011100000111 8$
b111111110000000000000011100000111 `$
b11111110111111100000000000000000000000000000000000000011111111 6$
b11111110111111100000000000000000000000000000000000000011111111 ^$
b11111111011111111000000000000000000000000000011111111 9$
b11111111011111111000000000000000000000000000011111111 a$
b11111111 =$
b11111111 T$
b11111111 X$
b1000001111111111111111111111111111111111111111111111111101111100 7$
b1000001111111111111111111111111111111111111111111111111101111100 _$
b0 5$
b0 ]$
b11111111 ;$
b11111111 R$
b11111111 Z$
b11111111 >$
b11111111 U$
b11111111 W$
b1111111111111111111111111111111111111111111111111111111100000000 <$
b1111111111111111111111111111111111111111111111111111111100000000 S$
b1111111111111111111111111111111111111111111111111111111100000000 Y$
b111111110000000000000000000000000000000000000000000000000000000011111111111111111111111111111111111111111111111111111111111111110000000000000000000000000000000000000000000000000000000000000000111111110000000000000000000000000000000000000000000000000000000000000000 \$
b0 :$
b0 Q$
b0 [$
0M#
0R#
b11111111 ?$
b11111111 J$
b11111111 K$
b11111111 N$
b0 k#
b0 l#
0g#
b0 '$
b0 2$
b1100 .$
b1100 4$
b1100 H$
b0 B$
b0 L$
b0 C$
b0 M$
b0 D$
b0 I$
b0 E$
b0 O$
b0 m#
b0 @$
b0 F$
b0 P$
0h#
0A$
b0 i#
b0 0$
b0 3$
b0 G$
b0 1$
b0 +$
b0 %$
b0 )$
b0 ($
b0 /$
b0 ^#
b0 c#
b0 _#
b0 d#
b0 \#
b0 ]#
1@#
#30
b1100001011100110110001101101111011011100010110101110101011011100110100101100011011000010111001101110011 g$
b100000101010011010000110100111101001110 c$
b101100010000101111001100000011011100001001001110001101110001101010001111010011101001100011110110010100101111010001100011000 f$
b1101101010011111000101110111111011000001110110000000101101000000111101100100000000111010100111001011011001000010001100110101100 e$
b0 d$
b10010000101010011010100100100 h$
0H#
#40
0@#
#60
b10000000010000000000110000000110000000000000000000000000000000000000000000000000000000000000000000000000000000000000000000000000000000000000000000000000000000000000000000000000000000000000000000000000000000000000000000000000000000000000000000000000000000000000000000000000000000000000000000000000000000000000000000000000 '$
b10000000010000000000110000000110000000000000000000000000000000000000000000000000000000000000000000000000000000000000000000000000000000000000000000000000000000000000000000000000000000000000000000000000000000000000000000000000000000000000000000000000000000000000000000000000000000000000000000000000000000000000000000000000 2$
b1000000001000000000011000000011000000000000000000000000000000000 k#
b1 \#
bx0100000000000000000000000 n#
bx0 `#
bx0 e#
bx0100000000000000000000000 o#
bx0 [#
bx0 b#
b10000000010000000000110000000110000000000000000000000000000000000000000000000000000000000000000000000000000000000000000000000000000000000000000000000000000000000000000000000000000000000000000000000000000000000000000000000000000000000000000000000000000000000000000000000000000000000000000000000000000000000000000000000000 ($
b1 d$
b11111111111111111111111111111111111111111111111111111111111111111111111111111111111111111111111111000000100010010101111010000001 h$
b1 K#
1E#
0G#
b110101 F#
b0 B#
b0 N#
b100 >#
b100 L#
b10 D#
b10 P#
b0 C#
b0 O#
1@#
#80
0@#
#100
b10 \#
bx01100000000000000000000000 n#
bx01 `#
bx01 e#
bx01100000000000000000000000 o#
bx01 [#
bx01 b#
b1 ^#
b1 c#
b10 d$
b11111111111111111111111111111111111111111111111111111111111111111111111111111111111111111111111110000100100001001101011000001001 h$
b10 K#
b1011110 F#
b101 B#
b101 N#
b1 >#
b1 L#
b1 D#
b1 P#
b10 C#
b10 O#
1@#
#120
0@#
#140
b10000000010000000000110000000110000000000000000000000000000000000000000000000000000000000000000000000000000000000000000000000000000000000000000000000000000000000000000000000000000000000000000100000000000000000000000000000000000000000000000000000000000000000000000000000000000000000000000000000000000000000000000000000000 '$
b10000000010000000000110000000110000000000000000000000000000000000000000000000000000000000000000000000000000000000000000000000000000000000000000000000000000000000000000000000000000000000000000100000000000000000000000000000000000000000000000000000000000000000000000000000000000000000000000000000000000000000000000000000000 2$
b100000000000000000000000000000000000000000000000000000000000000000000000000000000000000000000000000000000000000000000000000000000 l#
b11 \#
bx011100000000000000000000000 n#
bx011 `#
bx011 e#
bx010100000000000000000000000 o#
bx010 [#
bx010 b#
b11 ^#
b11 c#
b10000000010000000000110000000110000000000000000000000000000000000000000000000000000000000000000000000000000000000000000000000000000000000000000000000000000000000000000000000000000000000000000100000000000000000000000000000000000000000000000000000000000000000000000000000000000000000000000000000000000000000000000000000000 ($
b11 d$
b11111111111111111111111111111111111111111111111111111111111111111111111111111111111111111111111110110001111100000101011001100011 h$
b11 K#
b0 >#
b0 L#
0E#
1G#
b1010110 F#
b1 B#
b1 N#
b101 D#
b101 P#
1@#
#160
0@#
#180
b1100000000000000000000000000000000000000000000000000000000000000000000000000000000000000000000000000000000000000000000000000000000 l#
b10000000010000000000110000000110000000000000000000000000000000000000000000000000000000000000000000000000000000000000000000000000000000000000000000000000000000000000000000000000000000000000001100000000000000000000000000000000000000000000000000000000000000000000000000000000000000000000000000000000000000000000000000000000 '$
b10000000010000000000110000000110000000000000000000000000000000000000000000000000000000000000000000000000000000000000000000000000000000000000000000000000000000000000000000000000000000000000001100000000000000000000000000000000000000000000000000000000000000000000000000000000000000000000000000000000000000000000000000000000 2$
b10000000010000000000110000000110000000000000000000000000000000000000000000000000000000000000000000000000000000000000000000000000000000000000000000000000000000000000000000000000000000000000001100000000000000000000000000000000000000000000000000000000000000000000000000000000000000000000000000000000000000000000000000000000 ($
b100 \#
bx0110100000000000000000000000 n#
bx0110 `#
bx0110 e#
bx0100100000000000000000000000 o#
bx0100 [#
bx0100 b#
b110 ^#
b110 c#
b100 d$
b110101110010111101100001101 h$
b100 K#
0G#
b10 B#
b10 N#
b100 >#
b100 L#
b0 D#
b0 P#
b110 C#
b110 O#
1@#
#200
0@#
#220
b10000000010000000000110000000110000000000000000000000000000000000000000000000000000000000000000000000000000000000000000000000000000000000000000000000000000000000000000000000000000000000000011000000000000000000000000000000000000000000000000000000000000000000000000000000000000000000000000000000000000000000000000000000000 '$
b10000000010000000000110000000110000000000000000000000000000000000000000000000000000000000000000000000000000000000000000000000000000000000000000000000000000000000000000000000000000000000000011000000000000000000000000000000000000000000000000000000000000000000000000000000000000000000000000000000000000000000000000000000000 2$
b11000000000000000000000000000000000000000000000000000000000000000000000000000000000000000000000000000000000000000000000000000000000 l#
b101 \#
bx01100100000000000000000000000 n#
bx01100 `#
bx01100 e#
bx01000100000000000000000000000 o#
bx01000 [#
bx01000 b#
b1101 ^#
b1101 c#
b10000000010000000000110000000110000000000000000000000000000000000000000000000000000000000000000000000000000000000000000000000000000000000000000000000000000000000000000000000000000000000000011000000000000000000000000000000000000000000000000000000000000000000000000000000000000000000000000000000000000000000000000000000000 ($
b101 d$
b1000110110111111001100110001101 h$
b101 K#
1E#
b1111011 F#
b1 B#
b1 N#
b0 >#
b0 L#
b110 D#
b110 P#
b10 C#
b10 O#
1@#
#240
0@#
#260
b110100000000000000000000000000000000000000000000000000000000000000000000000000000000000000000000000000000000000000000000000000000000 l#
b10000000010000000000110000000110000000000000000000000000000000000000000000000000000000000000000000000000000000000000000000000000000000000000000000000000000000000000000000000000000000000000110100000000000000000000000000000000000000000000000000000000000000000000000000000000000000000000000000000000000000000000000000000000 '$
b10000000010000000000110000000110000000000000000000000000000000000000000000000000000000000000000000000000000000000000000000000000000000000000000000000000000000000000000000000000000000000000110100000000000000000000000000000000000000000000000000000000000000000000000000000000000000000000000000000000000000000000000000000000 2$
b10000000010000000000110000000110000000000000000000000000000000000000000000000000000000000000000000000000000000000000000000000000000000000000000000000000000000000000000000000000000000000000110100000000000000000000000000000000000000000000000000000000000000000000000000000000000000000000000000000000000000000000000000000000 ($
b110 \#
bx011000100000000000000000000000 n#
bx011000 `#
bx011000 e#
bx010000100000000000000000000000 o#
bx010000 [#
bx010000 b#
b1 _#
b1 d#
b11011 ^#
b11011 c#
b110 d$
b11111111111111111111111111111111111111111111111111111111111111111111111111111111111111111111111110110010110000101000010001100101 h$
b110 K#
b11 C#
b11 O#
1G#
b11001 F#
b101 B#
b101 N#
1@#
#280
0@#
#300
b10000000010000000000110000000110000000000000000000000000000000000000000000000000000000000000000000000000000000000000000000000000000000000000000000000000000000000000000000000000000000000001101100000000000000000000000000000000000000000000000000000000000000000000000000000000000000000000000000000000000000000000000000000001 '$
b10000000010000000000110000000110000000000000000000000000000000000000000000000000000000000000000000000000000000000000000000000000000000000000000000000000000000000000000000000000000000000001101100000000000000000000000000000000000000000000000000000000000000000000000000000000000000000000000000000000000000000000000000000001 2$
b1101100000000000000000000000000000000000000000000000000000000000000000000000000000000000000000000000000000000000000000000000000000001 l#
b111 \#
bx0110000100000000000000000000000 n#
bx0110000 `#
bx0110000 e#
bx0100000100000000000000000000000 o#
bx0100000 [#
bx0100000 b#
b10 _#
b10 d#
b110110 ^#
b110110 c#
b10000000010000000000110000000110000000000000000000000000000000000000000000000000000000000000000000000000000000000000000000000000000000000000000000000000000000000000000000000000000000000001101100000000000000000000000000000000000000000000000000000000000000000000000000000000000000000000000000000000000000000000000000000001 ($
b111 d$
b11111111111111111111111111111111111111111111111111111111111111111111111111111111111111111111111110001001001101110101001000010010 h$
b111 K#
b10 C#
b10 O#
0E#
b100 F#
b10 B#
b10 N#
b100 >#
b100 L#
b10 D#
b10 P#
1@#
#320
0@#
