testbench/test.vcd
$date
	Sun Oct 20 16:12:20 2024
$end
$version
	Icarus Verilog
$end
$timescale
	1ns
$end
$scope module tb_encdec $end
$var wire 1 ! tagxSO $end
$var wire 1 " plain_textxSO $end
$var wire 1 # decryption_readyxSO $end
$var parameter 32 $ PERIOD $end
$var parameter 32 % max $end
$var reg 1 & associated_dataxSI $end
$var reg 104 ' cipher_text [103:0] $end
$var reg 1 ( cipher_textxSI $end
$var reg 1 ) clk $end
$var reg 1 * decrypt $end
$var reg 1 + decryption_startxSI $end
$var reg 1 , keyxSI $end
$var reg 1 - noncexSI $end
$var reg 104 . plain_text [103:0] $end
$var reg 1 / rst $end
$var reg 128 0 tag [127:0] $end
$var integer 32 1 check_time [31:0] $end
$var integer 32 2 ctr [31:0] $end
$scope module uut $end
$var wire 1 # ascon_readyxSO $end
$var wire 1 3 ascon_start $end
$var wire 1 + ascon_startxSI $end
$var wire 1 & associated_dataxSI $end
$var wire 1 ) clk $end
$var wire 1 * decrypt $end
$var wire 1 ( input_dataxSI $end
$var wire 1 , keyxSI $end
$var wire 1 - noncexSI $end
$var wire 1 / rst $end
$var wire 128 4 tag [127:0] $end
$var wire 1 5 ready $end
$var wire 104 6 output_data [103:0] $end
$var wire 1 7 ascon_ready $end
$var parameter 32 8 a $end
$var parameter 32 9 b $end
$var parameter 32 : k $end
$var parameter 32 ; l $end
$var parameter 32 < r $end
$var parameter 32 = y $end
$var reg 40 > associated_data [39:0] $end
$var reg 1 ? flag_dec $end
$var reg 32 @ i [31:0] $end
$var reg 104 A input_data [103:0] $end
$var reg 32 B j [31:0] $end
$var reg 128 C key [127:0] $end
$var reg 128 D nonce [127:0] $end
$var reg 1 " output_dataxSO $end
$var reg 1 ! tagxSO $end
$scope module d1 $end
$var wire 62 E IV [61:0] $end
$var wire 1 7 ascon_ready $end
$var wire 1 3 ascon_start $end
$var wire 40 F associated_data [39:0] $end
$var wire 1 ) clk $end
$var wire 1 ? decrypt $end
$var wire 1 G flag_dec $end
$var wire 104 H input_data [103:0] $end
$var wire 128 I key [127:0] $end
$var wire 128 J nonce [127:0] $end
$var wire 1 / rst $end
$var wire 128 K tag [127:0] $end
$var wire 1 L permutation_ready $end
$var wire 104 M output_data [103:0] $end
$var wire 5 N ctr [4:0] $end
$var wire 64 O Sr [63:0] $end
$var wire 256 P Sc [255:0] $end
$var wire 320 Q P_out [319:0] $end
$var wire 128 R C [127:0] $end
$var wire 64 S A [63:0] $end
$var parameter 32 T ASSOCIATED_DATA $end
$var parameter 32 U CTPT $end
$var parameter 32 V DONE $end
$var parameter 32 W FINALIZE $end
$var parameter 32 X IDLE $end
$var parameter 32 Y INITIALIZE $end
$var parameter 35 Z L $end
$var parameter 35 [ Y $end
$var parameter 32 \ a $end
$var parameter 32 ] b $end
$var parameter 33 ^ c $end
$var parameter 32 _ k $end
$var parameter 32 ` l $end
$var parameter 34 a nz_ad $end
$var parameter 34 b nz_p $end
$var parameter 32 c r $end
$var parameter 35 d s $end
$var parameter 35 e t $end
$var parameter 32 f y $end
$var reg 128 g P [127:0] $end
$var reg 128 h P_d [127:0] $end
$var reg 320 i P_in [319:0] $end
$var reg 320 j S [319:0] $end
$var reg 128 k Tag [127:0] $end
$var reg 128 l Tag_d [127:0] $end
$var reg 1 m ascon_ready_1 $end
$var reg 3 n block_ctr [2:0] $end
$var reg 1 o permutation_start $end
$var reg 5 p rounds [4:0] $end
$var reg 3 q state [2:0] $end
$scope begin genblk1 $end
$upscope $end
$scope module RC $end
$var wire 1 ) clk $end
$var wire 5 r counter [4:0] $end
$var wire 1 o permutation_start $end
$var wire 1 / rst $end
$var wire 1 L permutation_ready $end
$var reg 5 s ctr [4:0] $end
$upscope $end
$scope module p1 $end
$var wire 320 t S [319:0] $end
$var wire 1 ) clk $end
$var wire 5 u ctr [4:0] $end
$var wire 1 L done $end
$var wire 1 / reset $end
$var wire 5 v rounds [4:0] $end
$var wire 1 o start $end
$var wire 64 w x4_d [63:0] $end
$var wire 64 x x3_d [63:0] $end
$var wire 64 y x2_d [63:0] $end
$var wire 64 z x1_d [63:0] $end
$var wire 64 { x0_d [63:0] $end
$var wire 64 | sl4 [63:0] $end
$var wire 64 } sl3 [63:0] $end
$var wire 64 ~ sl2 [63:0] $end
$var wire 64 !" sl1 [63:0] $end
$var wire 64 "" sl0 [63:0] $end
$var wire 64 #" rc_out [63:0] $end
$var wire 320 $" out [319:0] $end
$var reg 1 %" Done $end
$var reg 64 &" x0_q [63:0] $end
$var reg 64 '" x1_q [63:0] $end
$var reg 64 (" x2_q [63:0] $end
$var reg 64 )" x3_q [63:0] $end
$var reg 64 *" x4_q [63:0] $end
$scope module u0 $end
$var wire 5 +" ctr [4:0] $end
$var wire 5 ," rounds [4:0] $end
$var wire 64 -" x2 [63:0] $end
$var wire 64 ." out [63:0] $end
$var reg 64 /" out_buf [63:0] $end
$upscope $end
$scope module u1 $end
$var wire 64 0" x0 [63:0] $end
$var wire 64 1" x1 [63:0] $end
$var wire 64 2" x2 [63:0] $end
$var wire 64 3" x3 [63:0] $end
$var wire 64 4" x4 [63:0] $end
$var wire 64 5" sl4 [63:0] $end
$var wire 64 6" sl3 [63:0] $end
$var wire 64 7" sl2 [63:0] $end
$var wire 64 8" sl1 [63:0] $end
$var wire 64 9" sl0 [63:0] $end
$var parameter 32 :" TYPE $end
$scope begin genblk1 $end
$upscope $end
$upscope $end
$scope module u2 $end
$var wire 64 ;" X0 [63:0] $end
$var wire 64 <" X1 [63:0] $end
$var wire 64 =" X2 [63:0] $end
$var wire 64 >" X3 [63:0] $end
$var wire 64 ?" X4 [63:0] $end
$var wire 320 @" s [319:0] $end
$var wire 64 A" Y4 [63:0] $end
$var wire 64 B" Y3 [63:0] $end
$var wire 64 C" Y2 [63:0] $end
$var wire 64 D" Y1 [63:0] $end
$var wire 64 E" Y0 [63:0] $end
$upscope $end
$upscope $end
$upscope $end
$upscope $end
$scope task read_dec $end
$var integer 32 F" i [31:0] $end
$upscope $end
$scope task read_enc $end
$var integer 32 G" i [31:0] $end
$upscope $end
$scope task write $end
$var reg 128 H" ass_data [127:0] $end
$var reg 128 I" ct [127:0] $end
$var reg 128 J" i [127:0] $end
$var reg 128 K" key [127:0] $end
$var reg 128 L" nonce [127:0] $end
$var reg 128 M" rd [127:0] $end
$upscope $end
$upscope $end
$enddefinitions $end
$comment Show the parameter values. $end
$dumpall
b1 :"
b1101000 f
b10 e
b1 d
b1000000 c
b10111 b
b10111 a
b101000 `
b10000000 _
b100000000 ^
b110 ]
b1100 \
b10000000 [
b1000000 Z
b1 Y
b0 X
b100 W
b101 V
b11 U
b10 T
b1101000 =
b1000000 <
b101000 ;
b10000000 :
b110 9
b1100 8
b10000000 %
b10100 $
$end
#0
$dumpvars
bx M"
bx L"
bx K"
bx J"
bx I"
bx H"
bx G"
bx F"
bx E"
bx D"
bx C"
bx B"
bx A"
bx @"
bx ?"
bx >"
bx ="
bx <"
bx ;"
bx 9"
bx 8"
bx 7"
bx 6"
bx 5"
bx 4"
bx 3"
bx 2"
bx 1"
bx 0"
bx /"
bx ."
bx -"
b0 ,"
bx +"
bx *"
bx )"
bx ("
bx '"
bx &"
x%"
bx $"
bx #"
bx ""
bx !"
bx ~
bx }
bx |
bx {
bx z
bx y
bx x
bx w
b0 v
bx u
bx t
bx s
bx r
bx q
b0 p
0o
bx n
0m
b0 l
bx k
bx j
bx i
b0 h
bx g
bx100000000000000000000000 S
bx100000000000000000000000 R
bx Q
bx P
bx O
bx N
b0 M
xL
b0 K
bx J
bx I
bx H
xG
bx F
b10000000010000000000110000000110 E
bx D
bx C
bx B
bx A
bx @
x?
bx >
07
b0 6
x5
b0 4
x3
b0 2
bx 1
bx 0
1/
bx .
x-
x,
x+
0*
0)
x(
bx '
x&
0#
x"
x!
$end
#20
b111111110000000000000011100000111 z
b111111110000000000000011100000111 D"
b11111110111111100000000000000000000000000000000000000011111111 x
b11111110111111100000000000000000000000000000000000000011111111 B"
b11111111011111111000000000000000000000000000011111111 {
b11111111011111111000000000000000000000000000011111111 E"
b11111111 !"
b11111111 8"
b11111111 <"
b1000001111111111111111111111111111111111111111111111111101111100 y
b1000001111111111111111111111111111111111111111111111111101111100 C"
b0 w
b0 A"
b11111111 }
b11111111 6"
b11111111 >"
b11111111 ""
b11111111 9"
b11111111 ;"
b1111111111111111111111111111111111111111111111111111111100000000 ~
b1111111111111111111111111111111111111111111111111111111100000000 7"
b1111111111111111111111111111111111111111111111111111111100000000 ="
b111111110000000000000000000000000000000000000000000000000000000011111111111111111111111111111111111111111111111111111111111111110000000000000000000000000000000000000000000000000000000000000000111111110000000000000000000000000000000000000000000000000000000000000000 @"
b0 |
b0 5"
b0 ?"
03
05
b11111111 #"
b11111111 ."
b11111111 /"
b11111111 2"
b0 O
b0 P
b0 i
b0 t
b1100 p
b1100 v
b1100 ,"
b0 &"
b0 0"
b0 '"
b0 1"
b0 ("
b0 -"
b0 )"
b0 3"
b0 Q
b0 $"
b0 *"
b0 4"
0L
0%"
b0 N
b0 r
b0 u
b0 +"
b0 s
b0 n
b0 g
b0 k
b0 j
b0 q
b0 C
b0 I
b0 D
b0 J
b100000000000000000000000 S
b0 >
b0 F
b100000000000000000000000 R
b0 A
b0 H
0G
0?
b0 @
b0 B
1)
#30
b1100001011100110110001101101111011011100010110101110101011011100110100101100011011000010111001101110011 I"
b100000101010011010000110100111101001110 H"
b101100010000101111001100000011011100001001001110001101110001101010001111010011101001100011110110010100101111010001100011000 L"
b1101101010011111000101110111111011000001110110000000101101000000111101100100000000111010100111001011011001000010001100110101100 K"
b0 J"
b10010000101010011010100100100 M"
0/
#40
0)
#60
b10000000010000000000110000000110000000000000000000000000000000000000000000000000000000000000000000000000000000000000000000000000000000000000000000000000000000000000000000000000000000000000000000000000000000000000000000000000000000000000000000000000000000000000000000000000000000000000000000000000000000000000000000000000 i
b10000000010000000000110000000110000000000000000000000000000000000000000000000000000000000000000000000000000000000000000000000000000000000000000000000000000000000000000000000000000000000000000000000000000000000000000000000000000000000000000000000000000000000000000000000000000000000000000000000000000000000000000000000000 t
b1000000001000000000011000000011000000000000000000000000000000000 O
b1 @
b10000000010000000000110000000110000000000000000000000000000000000000000000000000000000000000000000000000000000000000000000000000000000000000000000000000000000000000000000000000000000000000000000000000000000000000000000000000000000000000000000000000000000000000000000000000000000000000000000000000000000000000000000000000 j
b1 J"
b11111111111111111111111111111111111111111111111111111111111111111111111111111111111111111111111111000000100010010101111010000001 M"
b1 2
0&
0(
0-
0,
1)
#80
0)
#100
b10 @
b1100000000000000000000000 R
b1 A
b1 H
b1100000000000000000000000 S
b1 >
b1 F
b1 C
b1 I
b10 J"
b11111111111111111111111111111111111111111111111111111111111111111111111111111111111111111111111110000100100001001101011000001001 M"
b10 2
1&
1(
1,
1)
#120
0)
#140
b10000000010000000000110000000110000000000000000000000000000000000000000000000000000000000000000000000000000000000000000000000000000000000000000000000000000000000000000000000000000000000000000100000000000000000000000000000000000000000000000000000000000000000000000000000000000000000000000000000000000000000000000000000000 i
b10000000010000000000110000000110000000000000000000000000000000000000000000000000000000000000000000000000000000000000000000000000000000000000000000000000000000000000000000000000000000000000000100000000000000000000000000000000000000000000000000000000000000000000000000000000000000000000000000000000000000000000000000000000 t
b100000000000000000000000000000000000000000000000000000000000000000000000000000000000000000000000000000000000000000000000000000000 P
b11 @
b11100000000000000000000000 R
b11 A
b11 H
b10100000000000000000000000 S
b10 >
b10 F
b11 C
b11 I
b10000000010000000000110000000110000000000000000000000000000000000000000000000000000000000000000000000000000000000000000000000000000000000000000000000000000000000000000000000000000000000000000100000000000000000000000000000000000000000000000000000000000000000000000000000000000000000000000000000000000000000000000000000000 j
b11 J"
b11111111111111111111111111111111111111111111111111111111111111111111111111111111111111111111111110110001111100000101011001100011 M"
b11 2
0&
1)
#160
0)
#180
b1100000000000000000000000000000000000000000000000000000000000000000000000000000000000000000000000000000000000000000000000000000000 P
b10000000010000000000110000000110000000000000000000000000000000000000000000000000000000000000000000000000000000000000000000000000000000000000000000000000000000000000000000000000000000000000001100000000000000000000000000000000000000000000000000000000000000000000000000000000000000000000000000000000000000000000000000000000 i
b10000000010000000000110000000110000000000000000000000000000000000000000000000000000000000000000000000000000000000000000000000000000000000000000000000000000000000000000000000000000000000000001100000000000000000000000000000000000000000000000000000000000000000000000000000000000000000000000000000000000000000000000000000000 t
b10000000010000000000110000000110000000000000000000000000000000000000000000000000000000000000000000000000000000000000000000000000000000000000000000000000000000000000000000000000000000000000001100000000000000000000000000000000000000000000000000000000000000000000000000000000000000000000000000000000000000000000000000000000 j
b100 @
b110100000000000000000000000 R
b110 A
b110 H
b100100000000000000000000000 S
b100 >
b100 F
b110 C
b110 I
b100 J"
b110101110010111101100001101 M"
b100 2
0(
0,
1)
#200
0)
#220
b10000000010000000000110000000110000000000000000000000000000000000000000000000000000000000000000000000000000000000000000000000000000000000000000000000000000000000000000000000000000000000000011000000000000000000000000000000000000000000000000000000000000000000000000000000000000000000000000000000000000000000000000000000000 i
b10000000010000000000110000000110000000000000000000000000000000000000000000000000000000000000000000000000000000000000000000000000000000000000000000000000000000000000000000000000000000000000011000000000000000000000000000000000000000000000000000000000000000000000000000000000000000000000000000000000000000000000000000000000 t
b11000000000000000000000000000000000000000000000000000000000000000000000000000000000000000000000000000000000000000000000000000000000 P
b101 @
b1100100000000000000000000000 R
b1100 A
b1100 H
b1000100000000000000000000000 S
b1000 >
b1000 F
b1101 C
b1101 I
b10000000010000000000110000000110000000000000000000000000000000000000000000000000000000000000000000000000000000000000000000000000000000000000000000000000000000000000000000000000000000000000011000000000000000000000000000000000000000000000000000000000000000000000000000000000000000000000000000000000000000000000000000000000 j
b101 J"
b1000110110111111001100110001101 M"
b101 2
1,
1)
#240
0)
#260
b110100000000000000000000000000000000000000000000000000000000000000000000000000000000000000000000000000000000000000000000000000000000 P
b10000000010000000000110000000110000000000000000000000000000000000000000000000000000000000000000000000000000000000000000000000000000000000000000000000000000000000000000000000000000000000000110100000000000000000000000000000000000000000000000000000000000000000000000000000000000000000000000000000000000000000000000000000000 i
b10000000010000000000110000000110000000000000000000000000000000000000000000000000000000000000000000000000000000000000000000000000000000000000000000000000000000000000000000000000000000000000110100000000000000000000000000000000000000000000000000000000000000000000000000000000000000000000000000000000000000000000000000000000 t
b10000000010000000000110000000110000000000000000000000000000000000000000000000000000000000000000000000000000000000000000000000000000000000000000000000000000000000000000000000000000000000000110100000000000000000000000000000000000000000000000000000000000000000000000000000000000000000000000000000000000000000000000000000000 j
b110 @
b11000100000000000000000000000 R
b11000 A
b11000 H
b10000100000000000000000000000 S
b10000 >
b10000 F
b1 D
b1 J
b11011 C
b11011 I
b110 J"
b11111111111111111111111111111111111111111111111111111111111111111111111111111111111111111111111110110010110000101000010001100101 M"
b110 2
1-
1)
#280
0)
#300
b10000000010000000000110000000110000000000000000000000000000000000000000000000000000000000000000000000000000000000000000000000000000000000000000000000000000000000000000000000000000000000001101100000000000000000000000000000000000000000000000000000000000000000000000000000000000000000000000000000000000000000000000000000001 i
b10000000010000000000110000000110000000000000000000000000000000000000000000000000000000000000000000000000000000000000000000000000000000000000000000000000000000000000000000000000000000000001101100000000000000000000000000000000000000000000000000000000000000000000000000000000000000000000000000000000000000000000000000000001 t
b1101100000000000000000000000000000000000000000000000000000000000000000000000000000000000000000000000000000000000000000000000000000001 P
b111 @
b110000100000000000000000000000 R
b110000 A
b110000 H
b100000100000000000000000000000 S
b100000 >
b100000 F
b10 D
b10 J
b110110 C
b110110 I
b10000000010000000000110000000110000000000000000000000000000000000000000000000000000000000000000000000000000000000000000000000000000000000000000000000000000000000000000000000000000000000001101100000000000000000000000000000000000000000000000000000000000000000000000000000000000000000000000000000000000000000000000000000001 j
b111 J"
b11111111111111111111111111111111111111111111111111111111111111111111111111111111111111111111111110001001001101110101001000010010 M"
b111 2
0-
0,
1)
#320
0)
#340
b11011000000000000000000000000000000000000000000000000000000000000000000000000000000000000000000000000000000000000000000000000000000010 P
b10000000010000000000110000000110000000000000000000000000000000000000000000000000000000000000000000000000000000000000000000000000000000000000000000000000000000000000000000000000000000000011011000000000000000000000000000000000000000000000000000000000000000000000000000000000000000000000000000000000000000000000000000000010 i
b10000000010000000000110000000110000000000000000000000000000000000000000000000000000000000000000000000000000000000000000000000000000000000000000000000000000000000000000000000000000000000011011000000000000000000000000000000000000000000000000000000000000000000000000000000000000000000000000000000000000000000000000000000010 t
b10000000010000000000110000000110000000000000000000000000000000000000000000000000000000000000000000000000000000000000000000000000000000000000000000000000000000000000000000000000000000000011011000000000000000000000000000000000000000000000000000000000000000000000000000000000000000000000000000000000000000000000000000000010 j
b1000 @
b1100001100000000000000000000000 R
b1100001 A
b1100001 H
b1000001100000000000000000000000 S
b1000001 >
b1000001 F
b101 D
b101 J
b1101101 C
b1101101 I
b1000 J"
b111100111110001100000001 M"
b1000 2
1&
1(
1-
1,
1)
#360
0)
#380
b10000000010000000000110000000110000000000000000000000000000000000000000000000000000000000000000000000000000000000000000000000000000000000000000000000000000000000000000000000000000000000110110100000000000000000000000000000000000000000000000000000000000000000000000000000000000000000000000000000000000000000000000000000101 i
b10000000010000000000110000000110000000000000000000000000000000000000000000000000000000000000000000000000000000000000000000000000000000000000000000000000000000000000000000000000000000000110110100000000000000000000000000000000000000000000000000000000000000000000000000000000000000000000000000000000000000000000000000000101 t
b110110100000000000000000000000000000000000000000000000000000000000000000000000000000000000000000000000000000000000000000000000000000101 P
b1001 @
b11000010100000000000000000000000 R
b11000010 A
b11000010 H
b10000010100000000000000000000000 S
b10000010 >
b10000010 F
b1011 D
b1011 J
b11011010 C
b11011010 I
b10000000010000000000110000000110000000000000000000000000000000000000000000000000000000000000000000000000000000000000000000000000000000000000000000000000000000000000000000000000000000000110110100000000000000000000000000000000000000000000000000000000000000000000000000000000000000000000000000000000000000000000000000000101 j
b1001 J"
b110110101111100110100001101 M"
b1001 2
0&
0(
0,
1)
#400
0)
#420
b1101101000000000000000000000000000000000000000000000000000000000000000000000000000000000000000000000000000000000000000000000000000001011 P
b10000000010000000000110000000110000000000000000000000000000000000000000000000000000000000000000000000000000000000000000000000000000000000000000000000000000000000000000000000000000000001101101000000000000000000000000000000000000000000000000000000000000000000000000000000000000000000000000000000000000000000000000000001011 i
b10000000010000000000110000000110000000000000000000000000000000000000000000000000000000000000000000000000000000000000000000000000000000000000000000000000000000000000000000000000000000001101101000000000000000000000000000000000000000000000000000000000000000000000000000000000000000000000000000000000000000000000000000001011 t
b10000000010000000000110000000110000000000000000000000000000000000000000000000000000000000000000000000000000000000000000000000000000000000000000000000000000000000000000000000000000000001101101000000000000000000000000000000000000000000000000000000000000000000000000000000000000000000000000000000000000000000000000000001011 j
b1010 @
b110000101100000000000000000000000 R
b110000101 A
b110000101 H
b100000101100000000000000000000000 S
b100000101 >
b100000101 F
b10110 D
b10110 J
b110110101 C
b110110101 I
b1010 J"
b111011001000111111000101110110 M"
b1010 2
1&
1(
0-
1,
1)
#440
0)
#460
b10000000010000000000110000000110000000000000000000000000000000000000000000000000000000000000000000000000000000000000000000000000000000000000000000000000000000000000000000000000000000011011010100000000000000000000000000000000000000000000000000000000000000000000000000000000000000000000000000000000000000000000000000010110 i
b10000000010000000000110000000110000000000000000000000000000000000000000000000000000000000000000000000000000000000000000000000000000000000000000000000000000000000000000000000000000000011011010100000000000000000000000000000000000000000000000000000000000000000000000000000000000000000000000000000000000000000000000000010110 t
b11011010100000000000000000000000000000000000000000000000000000000000000000000000000000000000000000000000000000000000000000000000000010110 P
b1011 @
b1100001011100000000000000000000000 R
b1100001011 A
b1100001011 H
b1000001010100000000000000000000000 S
b1000001010 >
b1000001010 F
b101100 D
b101100 J
b1101101010 C
b1101101010 I
b10000000010000000000110000000110000000000000000000000000000000000000000000000000000000000000000000000000000000000000000000000000000000000000000000000000000000000000000000000000000000011011010100000000000000000000000000000000000000000000000000000000000000000000000000000000000000000000000000000000000000000000000000010110 j
b1011 J"
b11110100011011100110100111101 M"
b1011 2
0&
0,
1)
#480
0)
#500
b110110101000000000000000000000000000000000000000000000000000000000000000000000000000000000000000000000000000000000000000000000000000101100 P
b10000000010000000000110000000110000000000000000000000000000000000000000000000000000000000000000000000000000000000000000000000000000000000000000000000000000000000000000000000000000000110110101000000000000000000000000000000000000000000000000000000000000000000000000000000000000000000000000000000000000000000000000000101100 i
b10000000010000000000110000000110000000000000000000000000000000000000000000000000000000000000000000000000000000000000000000000000000000000000000000000000000000000000000000000000000000110110101000000000000000000000000000000000000000000000000000000000000000000000000000000000000000000000000000000000000000000000000000101100 t
b10000000010000000000110000000110000000000000000000000000000000000000000000000000000000000000000000000000000000000000000000000000000000000000000000000000000000000000000000000000000000110110101000000000000000000000000000000000000000000000000000000000000000000000000000000000000000000000000000000000000000000000000000101100 j
b1100 @
b11000010111100000000000000000000000 R
b11000010111 A
b11000010111 H
b10000010101100000000000000000000000 S
b10000010101 >
b10000010101 F
b1011000 D
b1011000 J
b11011010100 C
b11011010100 I
b1100 J"
b1110110110101000101011111101101 M"
b1100 2
1&
1)
#520
0)
#540
b10000000010000000000110000000110000000000000000000000000000000000000000000000000000000000000000000000000000000000000000000000000000000000000000000000000000000000000000000000000000001101101010000000000000000000000000000000000000000000000000000000000000000000000000000000000000000000000000000000000000000000000000001011000 i
b10000000010000000000110000000110000000000000000000000000000000000000000000000000000000000000000000000000000000000000000000000000000000000000000000000000000000000000000000000000000001101101010000000000000000000000000000000000000000000000000000000000000000000000000000000000000000000000000000000000000000000000000001011000 t
b1101101010000000000000000000000000000000000000000000000000000000000000000000000000000000000000000000000000000000000000000000000000001011000 P
b1101 @
b110000101110100000000000000000000000 R
b110000101110 A
b110000101110 H
b100000101010100000000000000000000000 S
b100000101010 >
b100000101010 F
b10110001 D
b10110001 J
b110110101001 C
b110110101001 I
b10000000010000000000110000000110000000000000000000000000000000000000000000000000000000000000000000000000000000000000000000000000000000000000000000000000000000000000000000000000000001101101010000000000000000000000000000000000000000000000000000000000000000000000000000000000000000000000000000000000000000000000000001011000 j
b1101 J"
b1000110001011011111011110001100 M"
b1101 2
0&
0(
1-
1,
1)
#560
0)
#580
b11011010100100000000000000000000000000000000000000000000000000000000000000000000000000000000000000000000000000000000000000000000000010110001 P
b10000000010000000000110000000110000000000000000000000000000000000000000000000000000000000000000000000000000000000000000000000000000000000000000000000000000000000000000000000000000011011010100100000000000000000000000000000000000000000000000000000000000000000000000000000000000000000000000000000000000000000000000010110001 i
b10000000010000000000110000000110000000000000000000000000000000000000000000000000000000000000000000000000000000000000000000000000000000000000000000000000000000000000000000000000000011011010100100000000000000000000000000000000000000000000000000000000000000000000000000000000000000000000000000000000000000000000000010110001 t
b10000000010000000000110000000110000000000000000000000000000000000000000000000000000000000000000000000000000000000000000000000000000000000000000000000000000000000000000000000000000011011010100100000000000000000000000000000000000000000000000000000000000000000000000000000000000000000000000000000000000000000000000010110001 j
b1110 @
b1100001011100100000000000000000000000 R
b1100001011100 A
b1100001011100 H
b1000001010100100000000000000000000000 S
b1000001010100 >
b1000001010100 F
b101100010 D
b101100010 J
b1101101010011 C
b1101101010011 I
b1110 J"
b1111100111111011110100111111001 M"
b1110 2
0-
1)
#600
0)
#620
b10000000010000000000110000000110000000000000000000000000000000000000000000000000000000000000000000000000000000000000000000000000000000000000000000000000000000000000000000000000000110110101001100000000000000000000000000000000000000000000000000000000000000000000000000000000000000000000000000000000000000000000000101100010 i
b10000000010000000000110000000110000000000000000000000000000000000000000000000000000000000000000000000000000000000000000000000000000000000000000000000000000000000000000000000000000110110101001100000000000000000000000000000000000000000000000000000000000000000000000000000000000000000000000000000000000000000000000101100010 t
b110110101001100000000000000000000000000000000000000000000000000000000000000000000000000000000000000000000000000000000000000000000000101100010 P
b1111 @
b11000010111001100000000000000000000000 R
b11000010111001 A
b11000010111001 H
b10000010101001100000000000000000000000 S
b10000010101001 >
b10000010101001 F
b1011000100 D
b1011000100 J
b11011010100111 C
b11011010100111 I
b10000000010000000000110000000110000000000000000000000000000000000000000000000000000000000000000000000000000000000000000000000000000000000000000000000000000000000000000000000000000110110101001100000000000000000000000000000000000000000000000000000000000000000000000000000000000000000000000000000000000000000000000101100010 j
b1111 J"
b11111111111111111111111111111111111111111111111111111111111111111111111111111111111111111111111111100011001101110010010011000110 M"
b1111 2
1&
1(
1)
#640
0)
#660
b1101101010011100000000000000000000000000000000000000000000000000000000000000000000000000000000000000000000000000000000000000000000001011000100 P
b10000000010000000000110000000110000000000000000000000000000000000000000000000000000000000000000000000000000000000000000000000000000000000000000000000000000000000000000000000000001101101010011100000000000000000000000000000000000000000000000000000000000000000000000000000000000000000000000000000000000000000000001011000100 i
b10000000010000000000110000000110000000000000000000000000000000000000000000000000000000000000000000000000000000000000000000000000000000000000000000000000000000000000000000000000001101101010011100000000000000000000000000000000000000000000000000000000000000000000000000000000000000000000000000000000000000000000001011000100 t
b10000000010000000000110000000110000000000000000000000000000000000000000000000000000000000000000000000000000000000000000000000000000000000000000000000000000000000000000000000000001101101010011100000000000000000000000000000000000000000000000000000000000000000000000000000000000000000000000000000000000000000000001011000100 j
b10000 @
b110000101110011100000000000000000000000 R
b110000101110011 A
b110000101110011 H
b100000101010011100000000000000000000000 S
b100000101010011 >
b100000101010011 F
b10110001000 D
b10110001000 J
b110110101001111 C
b110110101001111 I
b10000 J"
b11111111111111111111111111111111111111111111111111111111111111111111111111111111111111111111111111100010111101111000010011000101 M"
b10000 2
1)
#680
0)
#700
b10000000010000000000110000000110000000000000000000000000000000000000000000000000000000000000000000000000000000000000000000000000000000000000000000000000000000000000000000000000011011010100111100000000000000000000000000000000000000000000000000000000000000000000000000000000000000000000000000000000000000000000010110001000 i
b10000000010000000000110000000110000000000000000000000000000000000000000000000000000000000000000000000000000000000000000000000000000000000000000000000000000000000000000000000000011011010100111100000000000000000000000000000000000000000000000000000000000000000000000000000000000000000000000000000000000000000000010110001000 t
b11011010100111100000000000000000000000000000000000000000000000000000000000000000000000000000000000000000000000000000000000000000000010110001000 P
b10001 @
b1100001011100110100000000000000000000000 R
b1100001011100110 A
b1100001011100110 H
b1000001010100110100000000000000000000000 S
b1000001010100110 >
b1000001010100110 F
b101100010000 D
b101100010000 J
b1101101010011111 C
b1101101010011111 I
b10000000010000000000110000000110000000000000000000000000000000000000000000000000000000000000000000000000000000000000000000000000000000000000000000000000000000000000000000000000011011010100111100000000000000000000000000000000000000000000000000000000000000000000000000000000000000000000000000000000000000000000010110001000 j
b10001 J"
b11111111111111111111111111111111111111111111111111111111111111111111111111111111111111111111111111010101000100111101001010101010 M"
b10001 2
0&
0(
1)
#720
0)
#740
b110110101001111100000000000000000000000000000000000000000000000000000000000000000000000000000000000000000000000000000000000000000000101100010000 P
b10000000010000000000110000000110000000000000000000000000000000000000000000000000000000000000000000000000000000000000000000000000000000000000000000000000000000000000000000000000110110101001111100000000000000000000000000000000000000000000000000000000000000000000000000000000000000000000000000000000000000000000101100010000 i
b10000000010000000000110000000110000000000000000000000000000000000000000000000000000000000000000000000000000000000000000000000000000000000000000000000000000000000000000000000000110110101001111100000000000000000000000000000000000000000000000000000000000000000000000000000000000000000000000000000000000000000000101100010000 t
b10000000010000000000110000000110000000000000000000000000000000000000000000000000000000000000000000000000000000000000000000000000000000000000000000000000000000000000000000000000110110101001111100000000000000000000000000000000000000000000000000000000000000000000000000000000000000000000000000000000000000000000101100010000 j
b10010 @
b11000010111001101100000000000000000000000 R
b11000010111001101 A
b11000010111001101 H
b10000010101001101100000000000000000000000 S
b10000010101001101 >
b10000010101001101 F
b1011000100001 D
b1011000100001 J
b11011010100111110 C
b11011010100111110 I
b10010 J"
b1110010101011111111011111100101 M"
b10010 2
1&
1(
1-
0,
1)
#760
0)
#780
b10000000010000000000110000000110000000000000000000000000000000000000000000000000000000000000000000000000000000000000000000000000000000000000000000000000000000000000000000000001101101010011111000000000000000000000000000000000000000000000000000000000000000000000000000000000000000000000000000000000000000000001011000100001 i
b10000000010000000000110000000110000000000000000000000000000000000000000000000000000000000000000000000000000000000000000000000000000000000000000000000000000000000000000000000001101101010011111000000000000000000000000000000000000000000000000000000000000000000000000000000000000000000000000000000000000000000001011000100001 t
b1101101010011111000000000000000000000000000000000000000000000000000000000000000000000000000000000000000000000000000000000000000000001011000100001 P
b10011 @
b110000101110011011100000000000000000000000 R
b110000101110011011 A
b110000101110011011 H
b100000101010011010100000000000000000000000 S
b100000101010011010 >
b100000101010011010 F
b10110001000010 D
b10110001000010 J
b110110101001111100 C
b110110101001111100 I
b10000000010000000000110000000110000000000000000000000000000000000000000000000000000000000000000000000000000000000000000000000000000000000000000000000000000000000000000000000001101101010011111000000000000000000000000000000000000000000000000000000000000000000000000000000000000000000000000000000000000000000001011000100001 j
b10011 J"
b11111111111111111111111111111111111111111111111111111111111111111111111111111111111111111111111110111011110100100111001001110111 M"
b10011 2
0&
0-
1)
#800
0)
