testbench/test.vcd
$date
	Sun Oct 13 07:40:21 2024
$end
$version
	Icarus Verilog
$end
$timescale
	1ns
$end
$scope module Permutation_ti $end
$var wire 320 ! S_0 [319:0] $end
$var wire 320 " S_1 [319:0] $end
$var wire 320 # S_2 [319:0] $end
$var wire 1 $ clk $end
$var wire 5 % ctr [4:0] $end
$var wire 1 & done $end
$var wire 64 ' ll0 [63:0] $end
$var wire 64 ( ll1 [63:0] $end
$var wire 64 ) ll2 [63:0] $end
$var wire 64 * ll3 [63:0] $end
$var wire 64 + ll4 [63:0] $end
$var wire 64 , r0 [63:0] $end
$var wire 64 - r1 [63:0] $end
$var wire 64 . r2 [63:0] $end
$var wire 64 / r3 [63:0] $end
$var wire 64 0 r4 [63:0] $end
$var wire 64 1 r5 [63:0] $end
$var wire 64 2 r6 [63:0] $end
$var wire 64 3 rc_out [63:0] $end
$var wire 1 4 reset $end
$var wire 5 5 rounds [4:0] $end
$var wire 1 6 start $end
$var wire 64 7 x0 [63:0] $end
$var wire 64 8 x1 [63:0] $end
$var wire 64 9 x2 [63:0] $end
$var wire 64 : x3 [63:0] $end
$var wire 64 ; x4 [63:0] $end
$var wire 64 < y0 [63:0] $end
$var wire 64 = y1 [63:0] $end
$var wire 64 > y2 [63:0] $end
$var wire 64 ? y3 [63:0] $end
$var wire 64 @ y4 [63:0] $end
$var wire 64 A y4_2 [63:0] $end
$var wire 64 B y4_1 [63:0] $end
$var wire 64 C y4_0 [63:0] $end
$var wire 64 D y3_2 [63:0] $end
$var wire 64 E y3_1 [63:0] $end
$var wire 64 F y3_0 [63:0] $end
$var wire 64 G y2_2 [63:0] $end
$var wire 64 H y2_1 [63:0] $end
$var wire 64 I y2_0 [63:0] $end
$var wire 64 J y1_2 [63:0] $end
$var wire 64 K y1_1 [63:0] $end
$var wire 64 L y1_0 [63:0] $end
$var wire 64 M y0_2 [63:0] $end
$var wire 64 N y0_1 [63:0] $end
$var wire 64 O y0_0 [63:0] $end
$var wire 64 P x4_2_d [63:0] $end
$var wire 64 Q x4_1_d [63:0] $end
$var wire 64 R x4_0_d [63:0] $end
$var wire 64 S x3_2_d [63:0] $end
$var wire 64 T x3_1_d [63:0] $end
$var wire 64 U x3_0_d [63:0] $end
$var wire 64 V x2_2_d [63:0] $end
$var wire 64 W x2_1_d [63:0] $end
$var wire 64 X x2_0_d [63:0] $end
$var wire 64 Y x1_2_d [63:0] $end
$var wire 64 Z x1_1_d [63:0] $end
$var wire 64 [ x1_0_d [63:0] $end
$var wire 64 \ x0_2_d [63:0] $end
$var wire 64 ] x0_1_d [63:0] $end
$var wire 64 ^ x0_0_d [63:0] $end
$var wire 64 _ rc_out_2 [63:0] $end
$var wire 64 ` rc_out_1 [63:0] $end
$var wire 64 a rc_out_0 [63:0] $end
$var wire 320 b out_2 [319:0] $end
$var wire 320 c out_1 [319:0] $end
$var wire 320 d out_0 [319:0] $end
$var reg 1 e Done $end
$var reg 64 f x0_0_q [63:0] $end
$var reg 64 g x0_1_q [63:0] $end
$var reg 64 h x0_2_q [63:0] $end
$var reg 64 i x1_0_q [63:0] $end
$var reg 64 j x1_1_q [63:0] $end
$var reg 64 k x1_2_q [63:0] $end
$var reg 64 l x2_0_q [63:0] $end
$var reg 64 m x2_1_q [63:0] $end
$var reg 64 n x2_2_q [63:0] $end
$var reg 64 o x3_0_q [63:0] $end
$var reg 64 p x3_1_q [63:0] $end
$var reg 64 q x3_2_q [63:0] $end
$var reg 64 r x4_0_q [63:0] $end
$var reg 64 s x4_1_q [63:0] $end
$var reg 64 t x4_2_q [63:0] $end
$scope module l0 $end
$var wire 64 u r0 [63:0] $end
$var wire 64 v r1 [63:0] $end
$var wire 64 w r2 [63:0] $end
$var wire 64 x r3 [63:0] $end
$var wire 64 y r4 [63:0] $end
$var wire 64 z x4 [63:0] $end
$var wire 64 { x3 [63:0] $end
$var wire 64 | x2 [63:0] $end
$var wire 64 } x1 [63:0] $end
$var wire 64 ~ x0 [63:0] $end
$var wire 320 !" s [319:0] $end
$var wire 320 "" r [319:0] $end
$var wire 64 #" Y4 [63:0] $end
$var wire 64 $" Y3 [63:0] $end
$var wire 64 %" Y2 [63:0] $end
$var wire 64 &" Y1 [63:0] $end
$var wire 64 '" Y0 [63:0] $end
$upscope $end
$scope module l1 $end
$var wire 64 (" r0 [63:0] $end
$var wire 64 )" r1 [63:0] $end
$var wire 64 *" r2 [63:0] $end
$var wire 64 +" r3 [63:0] $end
$var wire 64 ," r4 [63:0] $end
$var wire 64 -" x4 [63:0] $end
$var wire 64 ." x3 [63:0] $end
$var wire 64 /" x2 [63:0] $end
$var wire 64 0" x1 [63:0] $end
$var wire 64 1" x0 [63:0] $end
$var wire 320 2" s [319:0] $end
$var wire 320 3" r [319:0] $end
$var wire 64 4" Y4 [63:0] $end
$var wire 64 5" Y3 [63:0] $end
$var wire 64 6" Y2 [63:0] $end
$var wire 64 7" Y1 [63:0] $end
$var wire 64 8" Y0 [63:0] $end
$upscope $end
$scope module l2 $end
$var wire 64 9" r0 [63:0] $end
$var wire 64 :" r1 [63:0] $end
$var wire 64 ;" r2 [63:0] $end
$var wire 64 <" r3 [63:0] $end
$var wire 64 =" r4 [63:0] $end
$var wire 64 >" x4 [63:0] $end
$var wire 64 ?" x3 [63:0] $end
$var wire 64 @" x2 [63:0] $end
$var wire 64 A" x1 [63:0] $end
$var wire 64 B" x0 [63:0] $end
$var wire 320 C" s [319:0] $end
$var wire 320 D" r [319:0] $end
$var wire 64 E" Y4 [63:0] $end
$var wire 64 F" Y3 [63:0] $end
$var wire 64 G" Y2 [63:0] $end
$var wire 64 H" Y1 [63:0] $end
$var wire 64 I" Y0 [63:0] $end
$upscope $end
$scope module rc0 $end
$var wire 64 J" r0 [63:0] $end
$var wire 5 K" rounds [4:0] $end
$var wire 64 L" x2 [63:0] $end
$var wire 64 M" out [63:0] $end
$var reg 64 N" out_buf [63:0] $end
$upscope $end
$scope module rc1 $end
$var wire 64 O" r1 [63:0] $end
$var wire 5 P" rounds [4:0] $end
$var wire 64 Q" x2 [63:0] $end
$var wire 64 R" out [63:0] $end
$var reg 64 S" out_buf [63:0] $end
$upscope $end
$scope module rc2 $end
$var wire 5 T" ctr [4:0] $end
$var wire 64 U" r0 [63:0] $end
$var wire 64 V" r1 [63:0] $end
$var wire 5 W" rounds [4:0] $end
$var wire 64 X" x2 [63:0] $end
$var wire 64 Y" out [63:0] $end
$var reg 64 Z" out_buf [63:0] $end
$upscope $end
$scope module s0 $end
$var wire 64 [" x0_0 [63:0] $end
$var wire 64 \" x0_1 [63:0] $end
$var wire 64 ]" x0_2 [63:0] $end
$var wire 64 ^" x1_0 [63:0] $end
$var wire 64 _" x1_1 [63:0] $end
$var wire 64 `" x1_2 [63:0] $end
$var wire 64 a" x2_0 [63:0] $end
$var wire 64 b" x2_1 [63:0] $end
$var wire 64 c" x2_2 [63:0] $end
$var wire 64 d" x3_0 [63:0] $end
$var wire 64 e" x3_1 [63:0] $end
$var wire 64 f" x3_2 [63:0] $end
$var wire 64 g" x4_0 [63:0] $end
$var wire 64 h" x4_1 [63:0] $end
$var wire 64 i" x4_2 [63:0] $end
$var wire 64 j" y0_0 [63:0] $end
$var wire 64 k" y1_0 [63:0] $end
$var wire 64 l" y2_0 [63:0] $end
$var wire 64 m" y3_0 [63:0] $end
$var wire 64 n" y4_0 [63:0] $end
$upscope $end
$scope module s1 $end
$var wire 64 o" x0_0 [63:0] $end
$var wire 64 p" x0_1 [63:0] $end
$var wire 64 q" x0_2 [63:0] $end
$var wire 64 r" x1_0 [63:0] $end
$var wire 64 s" x1_1 [63:0] $end
$var wire 64 t" x1_2 [63:0] $end
$var wire 64 u" x2_0 [63:0] $end
$var wire 64 v" x2_1 [63:0] $end
$var wire 64 w" x2_2 [63:0] $end
$var wire 64 x" x3_0 [63:0] $end
$var wire 64 y" x3_1 [63:0] $end
$var wire 64 z" x3_2 [63:0] $end
$var wire 64 {" x4_0 [63:0] $end
$var wire 64 |" x4_1 [63:0] $end
$var wire 64 }" x4_2 [63:0] $end
$var wire 64 ~" y0_1 [63:0] $end
$var wire 64 !# y1_1 [63:0] $end
$var wire 64 "# y2_1 [63:0] $end
$var wire 64 ## y3_1 [63:0] $end
$var wire 64 $# y4_1 [63:0] $end
$upscope $end
$scope module s2 $end
$var wire 64 %# x0_0 [63:0] $end
$var wire 64 &# x0_1 [63:0] $end
$var wire 64 '# x0_2 [63:0] $end
$var wire 64 (# x1_0 [63:0] $end
$var wire 64 )# x1_1 [63:0] $end
$var wire 64 *# x1_2 [63:0] $end
$var wire 64 +# x2_0 [63:0] $end
$var wire 64 ,# x2_1 [63:0] $end
$var wire 64 -# x2_2 [63:0] $end
$var wire 64 .# x3_0 [63:0] $end
$var wire 64 /# x3_1 [63:0] $end
$var wire 64 0# x3_2 [63:0] $end
$var wire 64 1# x4_0 [63:0] $end
$var wire 64 2# x4_1 [63:0] $end
$var wire 64 3# x4_2 [63:0] $end
$var wire 64 4# y0_2 [63:0] $end
$var wire 64 5# y1_2 [63:0] $end
$var wire 64 6# y2_2 [63:0] $end
$var wire 64 7# y3_2 [63:0] $end
$var wire 64 8# y4_2 [63:0] $end
$upscope $end
$upscope $end
$scope module tb_encdec $end
$var wire 1 9# tagxSO $end
$var wire 1 :# plain_textxSO $end
$var wire 1 ;# decryption_readyxSO $end
$var parameter 32 <# PERIOD $end
$var parameter 32 =# max $end
$var reg 1 ># associated_dataxSI $end
$var reg 104 ?# cipher_text [103:0] $end
$var reg 1 @# cipher_textxSI $end
$var reg 1 A# clk $end
$var reg 1 B# decrypt $end
$var reg 1 C# decryption_startxSI $end
$var reg 1 D# keyxSI $end
$var reg 1 E# noncexSI $end
$var reg 104 F# plain_text [103:0] $end
$var reg 1 G# rst $end
$var reg 128 H# tag [127:0] $end
$var integer 32 I# check_time [31:0] $end
$var integer 32 J# ctr [31:0] $end
$scope module uut $end
$var wire 1 ;# ascon_readyxSO $end
$var wire 1 K# ascon_start $end
$var wire 1 C# ascon_startxSI $end
$var wire 1 ># associated_dataxSI $end
$var wire 1 A# clk $end
$var wire 1 B# decrypt $end
$var wire 1 @# input_dataxSI $end
$var wire 1 D# keyxSI $end
$var wire 1 E# noncexSI $end
$var wire 1 G# rst $end
$var wire 128 L# tag [127:0] $end
$var wire 1 M# ready $end
$var wire 104 N# output_data [103:0] $end
$var wire 1 O# ascon_ready $end
$var parameter 32 P# a $end
$var parameter 32 Q# b $end
$var parameter 32 R# k $end
$var parameter 32 S# l $end
$var parameter 32 T# r $end
$var parameter 32 U# y $end
$var reg 40 V# associated_data [39:0] $end
$var reg 1 W# flag_dec $end
$var reg 32 X# i [31:0] $end
$var reg 104 Y# input_data [103:0] $end
$var reg 32 Z# j [31:0] $end
$var reg 128 [# key [127:0] $end
$var reg 128 \# nonce [127:0] $end
$var reg 1 :# output_dataxSO $end
$var reg 1 9# tagxSO $end
$scope module d1 $end
$var wire 62 ]# IV [61:0] $end
$var wire 1 O# ascon_ready $end
$var wire 1 K# ascon_start $end
$var wire 40 ^# associated_data [39:0] $end
$var wire 1 A# clk $end
$var wire 1 W# decrypt $end
$var wire 1 _# flag_dec $end
$var wire 104 `# input_data [103:0] $end
$var wire 128 a# key [127:0] $end
$var wire 128 b# nonce [127:0] $end
$var wire 1 G# rst $end
$var wire 128 c# tag [127:0] $end
$var wire 1 d# permutation_ready $end
$var wire 104 e# output_data [103:0] $end
$var wire 5 f# ctr [4:0] $end
$var wire 64 g# Sr [63:0] $end
$var wire 256 h# Sc [255:0] $end
$var wire 320 i# P_out [319:0] $end
$var wire 128 j# C [127:0] $end
$var wire 64 k# A [63:0] $end
$var parameter 32 l# ASSOCIATED_DATA $end
$var parameter 32 m# CTPT $end
$var parameter 32 n# DONE $end
$var parameter 32 o# FINALIZE $end
$var parameter 32 p# IDLE $end
$var parameter 32 q# INITIALIZE $end
$var parameter 35 r# L $end
$var parameter 35 s# Y $end
$var parameter 32 t# a $end
$var parameter 32 u# b $end
$var parameter 33 v# c $end
$var parameter 32 w# k $end
$var parameter 32 x# l $end
$var parameter 34 y# nz_ad $end
$var parameter 34 z# nz_p $end
$var parameter 32 {# r $end
$var parameter 35 |# s $end
$var parameter 35 }# t $end
$var parameter 32 ~# y $end
$var reg 128 !$ P [127:0] $end
$var reg 128 "$ P_d [127:0] $end
$var reg 320 #$ P_in [319:0] $end
$var reg 320 $$ S [319:0] $end
$var reg 128 %$ Tag [127:0] $end
$var reg 128 &$ Tag_d [127:0] $end
$var reg 1 '$ ascon_ready_1 $end
$var reg 3 ($ block_ctr [2:0] $end
$var reg 1 )$ permutation_start $end
$var reg 5 *$ rounds [4:0] $end
$var reg 3 +$ state [2:0] $end
$scope begin genblk1 $end
$upscope $end
$scope module RC $end
$var wire 1 A# clk $end
$var wire 5 ,$ counter [4:0] $end
$var wire 1 )$ permutation_start $end
$var wire 1 G# rst $end
$var wire 1 d# permutation_ready $end
$var reg 5 -$ ctr [4:0] $end
$upscope $end
$scope module p1 $end
$var wire 320 .$ S [319:0] $end
$var wire 1 A# clk $end
$var wire 5 /$ ctr [4:0] $end
$var wire 1 d# done $end
$var wire 1 G# reset $end
$var wire 5 0$ rounds [4:0] $end
$var wire 1 )$ start $end
$var wire 64 1$ x4_d [63:0] $end
$var wire 64 2$ x3_d [63:0] $end
$var wire 64 3$ x2_d [63:0] $end
$var wire 64 4$ x1_d [63:0] $end
$var wire 64 5$ x0_d [63:0] $end
$var wire 64 6$ sl4 [63:0] $end
$var wire 64 7$ sl3 [63:0] $end
$var wire 64 8$ sl2 [63:0] $end
$var wire 64 9$ sl1 [63:0] $end
$var wire 64 :$ sl0 [63:0] $end
$var wire 64 ;$ rc_out [63:0] $end
$var wire 320 <$ out [319:0] $end
$var reg 1 =$ Done $end
$var reg 64 >$ x0_q [63:0] $end
$var reg 64 ?$ x1_q [63:0] $end
$var reg 64 @$ x2_q [63:0] $end
$var reg 64 A$ x3_q [63:0] $end
$var reg 64 B$ x4_q [63:0] $end
$scope module u0 $end
$var wire 5 C$ ctr [4:0] $end
$var wire 5 D$ rounds [4:0] $end
$var wire 64 E$ x2 [63:0] $end
$var wire 64 F$ out [63:0] $end
$var reg 64 G$ out_buf [63:0] $end
$upscope $end
$scope module u1 $end
$var wire 64 H$ x0 [63:0] $end
$var wire 64 I$ x1 [63:0] $end
$var wire 64 J$ x2 [63:0] $end
$var wire 64 K$ x3 [63:0] $end
$var wire 64 L$ x4 [63:0] $end
$var wire 64 M$ sl4 [63:0] $end
$var wire 64 N$ sl3 [63:0] $end
$var wire 64 O$ sl2 [63:0] $end
$var wire 64 P$ sl1 [63:0] $end
$var wire 64 Q$ sl0 [63:0] $end
$var parameter 32 R$ TYPE $end
$scope begin genblk1 $end
$upscope $end
$upscope $end
$scope module u2 $end
$var wire 64 S$ X0 [63:0] $end
$var wire 64 T$ X1 [63:0] $end
$var wire 64 U$ X2 [63:0] $end
$var wire 64 V$ X3 [63:0] $end
$var wire 64 W$ X4 [63:0] $end
$var wire 320 X$ s [319:0] $end
$var wire 64 Y$ Y4 [63:0] $end
$var wire 64 Z$ Y3 [63:0] $end
$var wire 64 [$ Y2 [63:0] $end
$var wire 64 \$ Y1 [63:0] $end
$var wire 64 ]$ Y0 [63:0] $end
$upscope $end
$upscope $end
$upscope $end
$upscope $end
$scope task read_dec $end
$var integer 32 ^$ i [31:0] $end
$upscope $end
$scope task read_enc $end
$var integer 32 _$ i [31:0] $end
$upscope $end
$scope task write $end
$var reg 128 `$ ass_data [127:0] $end
$var reg 128 a$ ct [127:0] $end
$var reg 128 b$ i [127:0] $end
$var reg 128 c$ key [127:0] $end
$var reg 128 d$ nonce [127:0] $end
$var reg 128 e$ rd [127:0] $end
$upscope $end
$upscope $end
$enddefinitions $end
$comment Show the parameter values. $end
$dumpall
b1 R$
b1101000 ~#
b10 }#
b1 |#
b1000000 {#
b10111 z#
b10111 y#
b101000 x#
b10000000 w#
b100000000 v#
b110 u#
b1100 t#
b10000000 s#
b1000000 r#
b1 q#
b0 p#
b100 o#
b101 n#
b11 m#
b10 l#
b1101000 U#
b1000000 T#
b101000 S#
b10000000 R#
b110 Q#
b1100 P#
b10000000 =#
b10100 <#
$end
#0
$dumpvars
bx e$
bx d$
bx c$
bx b$
bx a$
bx `$
bx _$
bx ^$
bx ]$
bx \$
bx [$
bx Z$
bx Y$
bx X$
bx W$
bx V$
bx U$
bx T$
bx S$
bx Q$
bx P$
bx O$
bx N$
bx M$
bx L$
bx K$
bx J$
bx I$
bx H$
bx G$
bx F$
bx E$
b0 D$
bx C$
bx B$
bx A$
bx @$
bx ?$
bx >$
x=$
bx <$
bx ;$
bx :$
bx 9$
bx 8$
bx 7$
bx 6$
bx 5$
bx 4$
bx 3$
bx 2$
bx 1$
b0 0$
bx /$
bx .$
bx -$
bx ,$
bx +$
b0 *$
0)$
bx ($
0'$
b0 &$
bx %$
bx $$
bx #$
b0 "$
bx !$
bx100000000000000000000000 k#
bx100000000000000000000000 j#
bx i#
bx h#
bx g#
bx f#
b0 e#
xd#
b0 c#
bx b#
bx a#
bx `#
x_#
bx ^#
b10000000010000000000110000000110 ]#
bx \#
bx [#
bx Z#
bx Y#
bx X#
xW#
bx V#
0O#
b0 N#
xM#
b0 L#
xK#
b0 J#
bx I#
bx H#
1G#
bx F#
xE#
xD#
xC#
0B#
0A#
x@#
bx ?#
x>#
0;#
x:#
x9#
bx 8#
bx 7#
bx 6#
bx 5#
bx 4#
bx 3#
bx 2#
bx 1#
bx 0#
bx /#
bx .#
bx -#
bx ,#
bx +#
bx *#
bx )#
bx (#
bx '#
bx &#
bx %#
bx $#
bx ##
bx "#
bx !#
bx ~"
bx }"
bx |"
bx {"
bx z"
bx y"
bx x"
bx w"
bx v"
bx u"
bx t"
bx s"
bx r"
bx q"
bx p"
bx o"
bx n"
bx m"
bx l"
bx k"
bx j"
bx i"
bx h"
bx g"
bx f"
bx e"
bx d"
bx c"
bx b"
bx a"
bx `"
bx _"
bx ^"
bx ]"
bx \"
bx ["
bx Z"
bx Y"
bx X"
bz W"
bz V"
bz U"
bz T"
bx S"
bx R"
bx Q"
bz P"
bz O"
bx N"
bx M"
bx L"
bz K"
bz J"
bx I"
bx H"
bx G"
bx F"
bx E"
bz D"
bx C"
bx B"
bx A"
bx @"
bx ?"
bx >"
bz ="
bz <"
bz ;"
bz :"
bz 9"
bx 8"
bx 7"
bx 6"
bx 5"
bx 4"
bz 3"
bx 2"
bx 1"
bx 0"
bx /"
bx ."
bx -"
bz ,"
bz +"
bz *"
bz )"
bz ("
bx '"
bx &"
bx %"
bx $"
bx #"
bz ""
bx !"
bx ~
bx }
bx |
bx {
bx z
bz y
bz x
bz w
bz v
bz u
bx t
bx s
bx r
bx q
bx p
bx o
bx n
bx m
bx l
bx k
bx j
bx i
bx h
bx g
bx f
xe
bx d
bx c
bx b
bx a
bx `
bx _
bx ^
bx ]
bx \
bx [
bx Z
bx Y
bx X
bx W
bx V
bx U
bx T
bx S
bx R
bx Q
bx P
bx O
bx N
bx M
bx L
bx K
bx J
bx I
bx H
bx G
bx F
bx E
bx D
bx C
bx B
bx A
bx @
bx ?
bx >
bx =
bx <
bx ;
bx :
bx 9
bx 8
bx 7
z6
bz 5
z4
bx 3
bz 2
bz 1
bz 0
bz /
bz .
bz -
bz ,
bx +
bx *
bx )
bx (
bx '
x&
bz %
z$
bz #
bz "
bz !
$end
#20
b111111110000000000000011100000111 4$
b111111110000000000000011100000111 \$
b11111110111111100000000000000000000000000000000000000011111111 2$
b11111110111111100000000000000000000000000000000000000011111111 Z$
b11111111011111111000000000000000000000000000011111111 5$
b11111111011111111000000000000000000000000000011111111 ]$
b11111111 9$
b11111111 P$
b11111111 T$
b1000001111111111111111111111111111111111111111111111111101111100 3$
b1000001111111111111111111111111111111111111111111111111101111100 [$
b0 1$
b0 Y$
b11111111 7$
b11111111 N$
b11111111 V$
b11111111 :$
b11111111 Q$
b11111111 S$
b1111111111111111111111111111111111111111111111111111111100000000 8$
b1111111111111111111111111111111111111111111111111111111100000000 O$
b1111111111111111111111111111111111111111111111111111111100000000 U$
b111111110000000000000000000000000000000000000000000000000000000011111111111111111111111111111111111111111111111111111111111111110000000000000000000000000000000000000000000000000000000000000000111111110000000000000000000000000000000000000000000000000000000000000000 X$
b0 6$
b0 M$
b0 W$
0K#
0M#
b11111111 ;$
b11111111 F$
b11111111 G$
b11111111 J$
b0 g#
b0 h#
b0 #$
b0 .$
b1100 *$
b1100 0$
b1100 D$
b0 >$
b0 H$
b0 ?$
b0 I$
b0 @$
b0 E$
b0 A$
b0 K$
b0 i#
b0 <$
b0 B$
b0 L$
0d#
0=$
b0 f#
b0 ,$
b0 /$
b0 C$
b0 -$
b0 ($
b0 !$
b0 %$
b0 $$
b0 +$
b0 [#
b0 a#
b0 \#
b0 b#
b100000000000000000000000 k#
b0 V#
b0 ^#
b100000000000000000000000 j#
b0 Y#
b0 `#
0_#
0W#
b0 X#
b0 Z#
1A#
#30
b1100001011100110110001101101111011011100010110101110101011011100110100101100011011000010111001101110011 a$
b100000101010011010000110100111101001110 `$
b101100010000101111001100000011011100001001001110001101110001101010001111010011101001100011110110010100101111010001100011000 d$
b1101101010011111000101110111111011000001110110000000101101000000111101100100000000111010100111001011011001000010001100110101100 c$
b0 b$
b10010000101010011010100100100 e$
0G#
#40
0A#
#60
b10000000010000000000110000000110000000000000000000000000000000000000000000000000000000000000000000000000000000000000000000000000000000000000000000000000000000000000000000000000000000000000000000000000000000000000000000000000000000000000000000000000000000000000000000000000000000000000000000000000000000000000000000000000 #$
b10000000010000000000110000000110000000000000000000000000000000000000000000000000000000000000000000000000000000000000000000000000000000000000000000000000000000000000000000000000000000000000000000000000000000000000000000000000000000000000000000000000000000000000000000000000000000000000000000000000000000000000000000000000 .$
b1000000001000000000011000000011000000000000000000000000000000000 g#
b1 X#
b10000000010000000000110000000110000000000000000000000000000000000000000000000000000000000000000000000000000000000000000000000000000000000000000000000000000000000000000000000000000000000000000000000000000000000000000000000000000000000000000000000000000000000000000000000000000000000000000000000000000000000000000000000000 $$
b1 b$
b11111111111111111111111111111111111111111111111111111111111111111111111111111111111111111111111111000000100010010101111010000001 e$
b1 J#
0>#
0@#
0E#
0D#
1A#
#80
0A#
#100
b10 X#
b1100000000000000000000000 j#
b1 Y#
b1 `#
b1100000000000000000000000 k#
b1 V#
b1 ^#
b1 [#
b1 a#
b10 b$
b11111111111111111111111111111111111111111111111111111111111111111111111111111111111111111111111110000100100001001101011000001001 e$
b10 J#
1>#
1@#
1D#
1A#
#120
0A#
#140
b10000000010000000000110000000110000000000000000000000000000000000000000000000000000000000000000000000000000000000000000000000000000000000000000000000000000000000000000000000000000000000000000100000000000000000000000000000000000000000000000000000000000000000000000000000000000000000000000000000000000000000000000000000000 #$
b10000000010000000000110000000110000000000000000000000000000000000000000000000000000000000000000000000000000000000000000000000000000000000000000000000000000000000000000000000000000000000000000100000000000000000000000000000000000000000000000000000000000000000000000000000000000000000000000000000000000000000000000000000000 .$
b100000000000000000000000000000000000000000000000000000000000000000000000000000000000000000000000000000000000000000000000000000000 h#
b11 X#
b11100000000000000000000000 j#
b11 Y#
b11 `#
b10100000000000000000000000 k#
b10 V#
b10 ^#
b11 [#
b11 a#
b10000000010000000000110000000110000000000000000000000000000000000000000000000000000000000000000000000000000000000000000000000000000000000000000000000000000000000000000000000000000000000000000100000000000000000000000000000000000000000000000000000000000000000000000000000000000000000000000000000000000000000000000000000000 $$
b11 b$
b11111111111111111111111111111111111111111111111111111111111111111111111111111111111111111111111110110001111100000101011001100011 e$
b11 J#
0>#
1A#
#160
0A#
#180
b1100000000000000000000000000000000000000000000000000000000000000000000000000000000000000000000000000000000000000000000000000000000 h#
b10000000010000000000110000000110000000000000000000000000000000000000000000000000000000000000000000000000000000000000000000000000000000000000000000000000000000000000000000000000000000000000001100000000000000000000000000000000000000000000000000000000000000000000000000000000000000000000000000000000000000000000000000000000 #$
b10000000010000000000110000000110000000000000000000000000000000000000000000000000000000000000000000000000000000000000000000000000000000000000000000000000000000000000000000000000000000000000001100000000000000000000000000000000000000000000000000000000000000000000000000000000000000000000000000000000000000000000000000000000 .$
b10000000010000000000110000000110000000000000000000000000000000000000000000000000000000000000000000000000000000000000000000000000000000000000000000000000000000000000000000000000000000000000001100000000000000000000000000000000000000000000000000000000000000000000000000000000000000000000000000000000000000000000000000000000 $$
b100 X#
b110100000000000000000000000 j#
b110 Y#
b110 `#
b100100000000000000000000000 k#
b100 V#
b100 ^#
b110 [#
b110 a#
b100 b$
b110101110010111101100001101 e$
b100 J#
0@#
0D#
1A#
#200
0A#
#220
b10000000010000000000110000000110000000000000000000000000000000000000000000000000000000000000000000000000000000000000000000000000000000000000000000000000000000000000000000000000000000000000011000000000000000000000000000000000000000000000000000000000000000000000000000000000000000000000000000000000000000000000000000000000 #$
b10000000010000000000110000000110000000000000000000000000000000000000000000000000000000000000000000000000000000000000000000000000000000000000000000000000000000000000000000000000000000000000011000000000000000000000000000000000000000000000000000000000000000000000000000000000000000000000000000000000000000000000000000000000 .$
b11000000000000000000000000000000000000000000000000000000000000000000000000000000000000000000000000000000000000000000000000000000000 h#
b101 X#
b1100100000000000000000000000 j#
b1100 Y#
b1100 `#
b1000100000000000000000000000 k#
b1000 V#
b1000 ^#
b1101 [#
b1101 a#
b10000000010000000000110000000110000000000000000000000000000000000000000000000000000000000000000000000000000000000000000000000000000000000000000000000000000000000000000000000000000000000000011000000000000000000000000000000000000000000000000000000000000000000000000000000000000000000000000000000000000000000000000000000000 $$
b101 b$
b1000110110111111001100110001101 e$
b101 J#
1D#
1A#
#240
0A#
#260
b110100000000000000000000000000000000000000000000000000000000000000000000000000000000000000000000000000000000000000000000000000000000 h#
b10000000010000000000110000000110000000000000000000000000000000000000000000000000000000000000000000000000000000000000000000000000000000000000000000000000000000000000000000000000000000000000110100000000000000000000000000000000000000000000000000000000000000000000000000000000000000000000000000000000000000000000000000000000 #$
b10000000010000000000110000000110000000000000000000000000000000000000000000000000000000000000000000000000000000000000000000000000000000000000000000000000000000000000000000000000000000000000110100000000000000000000000000000000000000000000000000000000000000000000000000000000000000000000000000000000000000000000000000000000 .$
b10000000010000000000110000000110000000000000000000000000000000000000000000000000000000000000000000000000000000000000000000000000000000000000000000000000000000000000000000000000000000000000110100000000000000000000000000000000000000000000000000000000000000000000000000000000000000000000000000000000000000000000000000000000 $$
b110 X#
b11000100000000000000000000000 j#
b11000 Y#
b11000 `#
b10000100000000000000000000000 k#
b10000 V#
b10000 ^#
b1 \#
b1 b#
b11011 [#
b11011 a#
b110 b$
b11111111111111111111111111111111111111111111111111111111111111111111111111111111111111111111111110110010110000101000010001100101 e$
b110 J#
1E#
1A#
#280
0A#
#300
b10000000010000000000110000000110000000000000000000000000000000000000000000000000000000000000000000000000000000000000000000000000000000000000000000000000000000000000000000000000000000000001101100000000000000000000000000000000000000000000000000000000000000000000000000000000000000000000000000000000000000000000000000000001 #$
b10000000010000000000110000000110000000000000000000000000000000000000000000000000000000000000000000000000000000000000000000000000000000000000000000000000000000000000000000000000000000000001101100000000000000000000000000000000000000000000000000000000000000000000000000000000000000000000000000000000000000000000000000000001 .$
b1101100000000000000000000000000000000000000000000000000000000000000000000000000000000000000000000000000000000000000000000000000000001 h#
b111 X#
b110000100000000000000000000000 j#
b110000 Y#
b110000 `#
b100000100000000000000000000000 k#
b100000 V#
b100000 ^#
b10 \#
b10 b#
b110110 [#
b110110 a#
b10000000010000000000110000000110000000000000000000000000000000000000000000000000000000000000000000000000000000000000000000000000000000000000000000000000000000000000000000000000000000000001101100000000000000000000000000000000000000000000000000000000000000000000000000000000000000000000000000000000000000000000000000000001 $$
b111 b$
b11111111111111111111111111111111111111111111111111111111111111111111111111111111111111111111111110001001001101110101001000010010 e$
b111 J#
0E#
0D#
1A#
#320
0A#
#340
b11011000000000000000000000000000000000000000000000000000000000000000000000000000000000000000000000000000000000000000000000000000000010 h#
b10000000010000000000110000000110000000000000000000000000000000000000000000000000000000000000000000000000000000000000000000000000000000000000000000000000000000000000000000000000000000000011011000000000000000000000000000000000000000000000000000000000000000000000000000000000000000000000000000000000000000000000000000000010 #$
b10000000010000000000110000000110000000000000000000000000000000000000000000000000000000000000000000000000000000000000000000000000000000000000000000000000000000000000000000000000000000000011011000000000000000000000000000000000000000000000000000000000000000000000000000000000000000000000000000000000000000000000000000000010 .$
b10000000010000000000110000000110000000000000000000000000000000000000000000000000000000000000000000000000000000000000000000000000000000000000000000000000000000000000000000000000000000000011011000000000000000000000000000000000000000000000000000000000000000000000000000000000000000000000000000000000000000000000000000000010 $$
b1000 X#
b1100001100000000000000000000000 j#
b1100001 Y#
b1100001 `#
b1000001100000000000000000000000 k#
b1000001 V#
b1000001 ^#
b101 \#
b101 b#
b1101101 [#
b1101101 a#
b1000 b$
b111100111110001100000001 e$
b1000 J#
1>#
1@#
1E#
1D#
1A#
#360
0A#
